Division,WeightClassKg,Place,Name,Team,BodyweightKg,Best3SquatKg,Best3BenchKg,Best3DeadliftKg,TotalKg,Equipment,Event,Sex,BirthDate
Boys,55.79,1,Evan Guzman,Mineral Wells,55.7,147.42,104.33,147.42,399.16,Single-ply,SBD,M,
Boys,55.79,2,Avington Cornell,Lake Worth,55.79,70.31,68.04,154.22,292.57,Single-ply,SBD,M,
Boys,67.13,1,Mathew Salazar,Lake Worth,61.87,142.88,86.18,192.78,421.84,Single-ply,SBD,M,
Boys,67.13,2,Kevin Ramirez,Weatherford,63.59,149.69,97.52,124.74,371.95,Single-ply,SBD,M,
Boys,67.13,3,Scott Burns,Lake Worth,66.95,115.67,83.91,136.08,335.66,Single-ply,SBD,M,
Boys,74.84,1,Jeramiah Wilton,Weatherford,74.75,238.14,156.49,217.72,612.35,Single-ply,SBD,M,
Boys,74.84,2,Heith Lewis,Peaster,73.21,181.44,102.06,165.56,449.06,Single-ply,SBD,M,
Boys,74.84,3,Danny Munson,Peaster,69.4,158.76,88.45,147.42,394.63,Single-ply,SBD,M,
Boys,74.84,4,Devlon Ellis,Mineral Wells,71.58,142.88,79.38,165.56,387.82,Single-ply,SBD,M,
Boys,74.84,5,Anthony Moreno,Lake Worth,69.94,133.81,102.06,142.88,378.75,Single-ply,SBD,M,
Boys,74.84,6,Diego Valenzuala,Lake Worth,73.66,117.93,79.38,127.01,324.32,Single-ply,SBD,M,
Boys,82.1,1,Barrett Smith,Weatherford,78.74,201.85,136.08,204.12,542.04,Single-ply,SBD,M,
Boys,82.1,2,Wyatt Lacy,Peaster,78.29,224.53,111.13,201.85,537.51,Single-ply,SBD,M,
Boys,82.1,3,Dominic Alvarez,Lake Worth,81.83,154.22,81.65,197.31,433.18,Single-ply,SBD,M,
Boys,82.1,4,Donte Reece,Lake Worth,79.74,147.42,113.4,136.08,396.89,Single-ply,SBD,M,
Boys,82.1,5,Jaiden Gallagher,Lake Worth,81.92,124.74,90.72,140.61,356.07,Single-ply,SBD,M,
Boys,89.81,1,Cole Faires,Peaster,88.63,222.26,127.01,222.26,571.53,Single-ply,SBD,M,
Boys,89.81,2,Everett Young,Weatherford,85.64,197.31,145.15,176.9,519.36,Single-ply,SBD,M,
Boys,89.81,3,Toby Davis,Weatherford,88.45,185.97,133.81,190.51,510.29,Single-ply,SBD,M,
Boys,89.81,4,Kaden Newsome,Mineral Wells,88.45,158.76,97.52,174.63,430.91,Single-ply,SBD,M,
Boys,99.79,1,Daniel Seals,Weatherford,89.99,231.33,181.44,224.53,637.3,Single-ply,SBD,M,
Boys,99.79,2,Eagen Dennett,Weatherford,98.07,174.63,156.49,190.51,521.63,Single-ply,SBD,M,
Boys,99.79,3,Juan Moreno,Lake Worth,96.98,170.1,102.06,183.7,455.86,Single-ply,SBD,M,
Boys,99.79,4,Brandon Gray,Mineral Wells,99.61,170.1,92.99,165.56,428.64,Single-ply,SBD,M,
Boys,99.79,5,Clay Jones,Peaster,96.16,170.1,,,170.1,Single-ply,S,M,
Boys,99.79,DQ,Bradyn Gachuzo,Peaster,92.9,,,,,Single-ply,SBD,M,
Boys,109.77,1,Bryson Ross,Weatherford,103.87,215.46,156.49,195.04,566.99,Single-ply,SBD,M,
Boys,109.77,2,Hunter Menchacha,Mineral Wells,109.68,188.24,106.59,204.12,498.95,Single-ply,SBD,M,
Boys,124.74,1,Karson Daniel,Weatherford,116.3,238.14,181.44,217.72,637.3,Single-ply,SBD,M,
Boys,124.74,2,Ryan Clark,Weatherford,113.31,226.8,163.29,213.19,603.28,Single-ply,SBD,M,
Boys,124.74,3,Cooper Sharp,Peaster,119.29,240.4,133.81,219.99,594.21,Single-ply,SBD,M,
Boys,124.74,4,Mathew Welch,Lake Worth,123.92,181.44,136.08,206.38,523.9,Single-ply,SBD,M,
Boys,139.71,1,Chason McCue,Weatherford,131.18,226.8,161.03,183.7,571.53,Single-ply,SBD,M,
Boys,139.71,2,Spencer Johnson,Peaster,138.25,188.24,120.2,151.95,460.4,Single-ply,SBD,M,
Boys,139.71+,1,Xavier King,Weatherford,153.04,231.33,131.54,208.65,571.53,Single-ply,SBD,M,
Boys,139.71+,2,Hector Garcia,Lake Worth,158.94,206.38,127.01,188.24,521.63,Single-ply,SBD,M,
