Division,WeightClassKg,Place,Name,Team,BodyweightKg,Best3SquatKg,Best3BenchKg,Best3DeadliftKg,TotalKg,Equipment,Event,Sex,BirthDate
Boys,51.71,1,Avery Roberts,Brownsboro,51.03,122.47,74.84,138.35,335.66,Single-ply,SBD,M,
Boys,51.71,DQ,Michael Lawrence,Brownsboro,51.48,115.67,,136.08,,Single-ply,SBD,M,
Boys,55.79,1,Ethan Ramsey,Brownsboro,53.71,113.4,70.31,147.42,331.12,Single-ply,SBD,M,
Boys,55.79,2,Jace Harrod,Palestine,54.2,120.2,79.38,113.4,312.98,Single-ply,SBD,M,
Boys,55.79,3,Nathan Sherman,Brownsboro,51.75,102.06,54.43,115.67,272.16,Single-ply,SBD,M,
Boys,59.87,1,Kyle Crawford,Brownsboro,59.38,195.04,113.4,215.46,523.9,Single-ply,SBD,M,
Boys,59.87,2,Charlie Sawyer,Frankston,58.65,136.08,79.38,136.08,351.53,Single-ply,SBD,M,
Boys,59.87,3,Darren Parrish,Troup,58.79,81.65,61.23,97.52,240.4,Single-ply,SBD,M,
Boys,59.87,DQ,Ben Frost,Bullard,59.78,142.88,102.06,,,Single-ply,SBD,M,
Boys,67.13,1,Tyler Hunt,Palestine,65.54,206.38,124.74,197.31,528.44,Single-ply,SBD,M,
Boys,67.13,2,Landon Fretwell,Brownsboro,66.77,190.51,129.27,199.58,519.36,Single-ply,SBD,M,
Boys,67.13,3,Caiden Lee,Bullard,65.77,183.7,106.59,170.1,460.4,Single-ply,SBD,M,
Boys,67.13,4,Quintin Taylor,Troup,61.05,172.37,102.06,181.44,455.86,Single-ply,SBD,M,
Boys,67.13,5,Hunter Washington,Brownsboro,62.51,170.1,95.25,183.7,449.06,Single-ply,SBD,M,
Boys,67.13,6,Justin Birch,Frankston,67.13,167.83,90.72,172.37,430.91,Single-ply,SBD,M,
Boys,67.13,7,Cannon Fussell,Palestine,67,147.42,102.06,163.29,412.77,Single-ply,SBD,M,
Boys,67.13,8,Tanner Keys,Troup,64,145.15,83.91,163.29,392.36,Single-ply,SBD,M,
Boys,67.13,9,Derek Bowers,Bullard,64.32,147.42,92.99,151.95,392.36,Single-ply,SBD,M,
Boys,67.13,10,Luke Irwin,Brownsboro,60.28,136.08,70.31,136.08,342.46,Single-ply,SBD,M,
Boys,67.13,11,Grant Smith,Bullard,65.36,83.91,47.63,106.59,238.14,Single-ply,SBD,M,
Boys,74.84,1,Mickey Ray,Bullard,73.94,226.8,117.93,219.99,564.72,Single-ply,SBD,M,
Boys,74.84,2,Robert Haney,Brownsboro,72.3,192.78,136.08,195.04,523.9,Single-ply,SBD,M,
Boys,74.84,3,Kaden Mahoney,Troup,67.86,185.97,111.13,188.24,485.34,Single-ply,SBD,M,
Boys,74.84,4,Cole Murry,Whitehouse,67.86,158.76,108.86,174.63,442.25,Single-ply,SBD,M,
Boys,74.84,5,Kaiden Bailey,Whitehouse,74.07,147.42,97.52,165.56,410.5,Single-ply,SBD,M,
Boys,74.84,6,Johnny Martinez,Palestine,67.77,113.4,72.57,147.42,333.39,Single-ply,SBD,M,
Boys,74.84,7,Timmy Ryals,Frankston,71.4,124.74,65.77,142.88,333.39,Single-ply,SBD,M,
Boys,74.84,8,Alex Sierra,Palestine,74.75,113.4,72.57,136.08,322.05,Single-ply,SBD,M,
Boys,74.84,9,Osvaldo Quevedo,Palestine,70.9,102.06,72.57,131.54,306.17,Single-ply,SBD,M,
Boys,74.84,10,Joel Cruz,Palestine,68.13,90.72,65.77,136.08,292.57,Single-ply,SBD,M,
Boys,74.84,11,Austin Frost,Bullard,73.57,113.4,61.23,111.13,285.76,Single-ply,SBD,M,
Boys,74.84,12,Hudson Layne,Tyler All Saints Episcopal School,73.21,83.91,65.77,120.2,269.89,Single-ply,SBD,M,
Boys,82.1,1,Collin Crow,Brownsboro,79.15,215.46,151.95,210.92,578.33,Single-ply,SBD,M,
Boys,82.1,2,Fabian Marquiz,Palestine,81.78,190.51,113.4,192.78,496.68,Single-ply,SBD,M,
Boys,82.1,3,Brodie Aylor,Bullard,78.29,174.63,106.59,174.63,455.86,Single-ply,SBD,M,
Boys,82.1,4,Weston Simmons,Whitehouse,77.93,147.42,95.25,158.76,401.43,Single-ply,SBD,M,
Boys,82.1,5,Caelan Soultanov,Jacksonville,82.05,147.42,95.25,158.76,401.43,Single-ply,SBD,M,
Boys,82.1,6,Josue Gaytan,Jacksonville,81.06,142.88,97.52,154.22,394.63,Single-ply,SBD,M,
Boys,82.1,7,Haven Hudson,Whitehouse,81.56,127.01,97.52,133.81,358.34,Single-ply,SBD,M,
Boys,82.1,DQ,Landon Wilson,Bullard,76.02,195.04,102.06,,,Single-ply,SBD,M,
Boys,89.81,1,Jacob Baker,Troup,88.77,188.24,111.13,229.06,528.44,Single-ply,SBD,M,
Boys,89.81,2,Cayden Royal,Bullard,87.72,204.12,111.13,201.85,517.1,Single-ply,SBD,M,
Boys,89.81,3,Shawn Rios,Whitehouse,83.37,154.22,111.13,185.97,451.32,Single-ply,SBD,M,
Boys,89.81,4,Keilon Caldwell,Whitehouse,84.41,115.67,86.18,158.76,360.61,Single-ply,SBD,M,
Boys,89.81,5,Wesley Ivey,Brownsboro,87.45,111.13,95.25,124.74,331.12,Single-ply,SBD,M,
Boys,99.79,1,Billy Bateman,Jacksonville,96.71,190.51,154.22,226.8,571.53,Single-ply,SBD,M,
Boys,99.79,2,Jose Rodriguez,Jacksonville,95.48,183.7,95.25,167.83,446.79,Single-ply,SBD,M,
Boys,99.79,3,Asher Malone,Bullard,93.53,161.03,81.65,142.88,385.55,Single-ply,SBD,M,
Boys,99.79,4,Isaac Diaz,Tyler All Saints Episcopal School,96.57,170.1,77.11,129.27,376.48,Single-ply,SBD,M,
Boys,99.79,5,Sean Flood,Troup,95.3,140.61,83.91,147.42,371.95,Single-ply,SBD,M,
Boys,99.79,6,Payton Hernandez,Tyler All Saints Episcopal School,92.76,102.06,54.43,142.88,299.37,Single-ply,SBD,M,
Boys,99.79,DQ,Luke Martin,Bullard,97.98,,,147.42,,Single-ply,SBD,M,
Boys,109.77,1,Ryan Magrill,Brownsboro,102.87,294.84,185.97,229.06,709.87,Single-ply,SBD,M,
Boys,109.77,2,Austin Taylor,Bullard,108.14,260.82,181.44,233.6,675.85,Single-ply,SBD,M,
Boys,109.77,3,Brantley Bauer,Jacksonville,104.19,190.51,131.54,204.12,526.17,Single-ply,SBD,M,
Boys,109.77,4,Anthony Cummings,Jacksonville,101.7,197.31,115.67,188.24,501.22,Single-ply,SBD,M,
Boys,109.77,5,Nick Henson,Bullard,108.27,183.7,124.74,167.83,476.27,Single-ply,SBD,M,
Boys,109.77,6,Chase Wright,Jacksonville,109,197.31,102.06,170.1,469.47,Single-ply,SBD,M,
Boys,109.77,7,Hector Ruiz,Palestine,105.55,188.24,113.4,163.29,464.93,Single-ply,SBD,M,
Boys,109.77,8,Hunter Martin,Tyler All Saints Episcopal School,107.23,129.27,88.45,188.24,405.97,Single-ply,SBD,M,
Boys,124.74,1,Alex Oxford,Frankston,124.74,258.55,158.76,204.12,621.42,Single-ply,SBD,M,
Boys,124.74,2,Landon Daffan,Bullard,112.58,254.01,145.15,204.12,603.28,Single-ply,SBD,M,
Boys,124.74,3,Austin Ellis,Bullard,120.2,219.99,129.27,197.31,546.58,Single-ply,SBD,M,
Boys,124.74,4,Anthony Yarbrough,Whitehouse,119.25,185.97,133.81,188.24,508.02,Single-ply,SBD,M,
Boys,124.74,5,Ladarius Pitts,Whitehouse,120.88,174.63,136.08,185.97,496.68,Single-ply,SBD,M,
Boys,124.74,6,Dakoda Whiteley,Jacksonville,112.9,185.97,92.99,197.31,476.27,Single-ply,SBD,M,
Boys,124.74,7,Colton Moncrief,Whitehouse,115.67,165.56,129.27,156.49,451.32,Single-ply,SBD,M,
Boys,124.74,8,Julian Garcia,Palestine,124.56,147.42,95.25,183.7,426.38,Single-ply,SBD,M,
Boys,124.74,9,Jack Johnson,Troup,124.42,158.76,97.52,165.56,421.84,Single-ply,SBD,M,
Boys,124.74,10,Tristen Stickle,Jacksonville,117.66,97.52,54.43,88.45,240.4,Single-ply,SBD,M,
Boys,139.71,1,Aiden Gay,Jacksonville,139.57,213.19,163.29,226.8,603.28,Single-ply,SBD,M,
Boys,139.71,2,Cole Feiden,Whitehouse,125.78,174.63,120.2,158.76,453.59,Single-ply,SBD,M,
Boys,139.71,3,Timothy Fisher,Whitehouse,126.1,163.29,124.74,161.03,449.06,Single-ply,SBD,M,
