Division,WeightClassKg,Place,Name,Team,BodyweightKg,Best3SquatKg,Best3BenchKg,Best3DeadliftKg,TotalKg,Equipment,Event,Sex,BirthDate
Boys,51.71,1,Bryan Diaz,Longview Pine Tree,50.44,104.33,68.04,127.01,299.37,Single-ply,SBD,M,
Boys,51.71,2,Kaleb Dollison,Longview Pine Tree,50.62,106.59,54.43,108.86,269.89,Single-ply,SBD,M,
Boys,51.71,3,Bryan Nunez,Longview Pine Tree,49.99,92.99,61.23,111.13,265.35,Single-ply,SBD,M,
Boys,51.71,4,Steve Nunez,Longview Pine Tree,50.44,83.91,47.63,111.13,242.67,Single-ply,SBD,M,
Boys,55.79,1,Benito Castro,Longview Pine Tree,54.25,122.47,61.23,149.69,333.39,Single-ply,SBD,M,
Boys,55.79,2,Jovanny Ortega,Longview Pine Tree,53.07,99.79,54.43,108.86,263.08,Single-ply,SBD,M,
Boys,59.87,1,Earl Williams,Longview Pine Tree,59.69,172.37,102.06,172.37,446.79,Single-ply,SBD,M,
Boys,59.87,2,Joseph Cordova,Longview Pine Tree,59.83,151.95,79.38,147.42,378.75,Single-ply,SBD,M,
Boys,67.13,1,Raimone Flournoy,Longview Pine Tree,67.13,163.29,111.13,172.37,446.79,Single-ply,SBD,M,
Boys,67.13,2,Jalynn Robinson,Longview Pine Tree,65.23,147.42,99.79,172.37,419.57,Single-ply,SBD,M,
Boys,67.13,3,Samuel Shankles,Longview Spring Hill,61.78,154.22,106.59,154.22,415.04,Single-ply,SBD,M,
Boys,67.13,4,Ethan Miller,Longview Spring Hill,63.78,117.93,90.72,167.83,376.48,Single-ply,SBD,M,
Boys,67.13,5,Oscar Castanos,Longview Spring Hill,65.41,124.74,79.38,154.22,358.34,Single-ply,SBD,M,
Boys,67.13,6,Luis Zamora,Longview Pine Tree,66.59,120.2,77.11,154.22,351.53,Single-ply,SBD,M,
Boys,74.84,1,Brandt Weisinger,Longview Spring Hill,73.57,165.56,99.79,183.7,449.06,Single-ply,SBD,M,
Boys,74.84,2,Julius Hawkins,Longview Spring Hill,71.3,165.56,97.52,181.44,444.52,Single-ply,SBD,M,
Boys,74.84,3,Malachi Gray,Longview Pine Tree,72.57,172.37,99.79,172.37,444.52,Single-ply,SBD,M,
Boys,74.84,4,Gage White,Longview Spring Hill,69.94,111.13,74.84,181.44,367.41,Single-ply,SBD,M,
Boys,74.84,5,Jose Romero,Longview Pine Tree,73.94,156.49,72.57,136.08,365.14,Single-ply,SBD,M,
Boys,74.84,6,Logan Mills,Longview Spring Hill,74.84,111.13,70.31,133.81,315.25,Single-ply,SBD,M,
Boys,74.84,DQ,Christian Jeter,Longview Spring Hill,74.62,154.22,,158.76,,Single-ply,SBD,M,
Boys,89.81,1,Kelton Pickrom,Longview Pine Tree,88.9,183.7,145.15,192.78,521.63,Single-ply,SBD,M,
Boys,89.81,2,Preston Armstrong,Longview Pine Tree,88.63,170.1,122.47,188.24,480.81,Single-ply,SBD,M,
Boys,89.81,3,Gian Victoria,Longview Spring Hill,85.37,142.88,77.11,170.1,390.09,Single-ply,SBD,M,
Boys,99.79,1,Mark Daniels,Longview Pine Tree,98.61,254.01,183.7,226.8,664.51,Single-ply,SBD,M,
Boys,99.79,2,Hurcules Tarver,Longview Pine Tree,94.17,229.06,149.69,213.19,591.94,Single-ply,SBD,M,
Boys,99.79,3,Brooks Hill,Longview Spring Hill,91.26,208.65,127.01,215.46,551.11,Single-ply,SBD,M,
Boys,99.79,4,Bayne Brinkman,Longview Spring Hill,95.62,213.19,124.74,208.65,546.58,Single-ply,SBD,M,
Boys,99.79,5,Kaden McFaul,Longview Spring Hill,92.35,199.58,106.59,199.58,505.76,Single-ply,SBD,M,
Boys,99.79,6,Talon Ferguson,Longview Spring Hill,98.02,179.17,99.79,165.56,444.52,Single-ply,SBD,M,
Boys,109.77,1,Kaden Ramo,Longview Spring Hill,103.78,170.1,99.79,176.9,446.79,Single-ply,SBD,M,
Boys,109.77,2,Ethan Whyte,Longview Spring Hill,104.05,181.44,102.06,156.49,439.98,Single-ply,SBD,M,
Boys,109.77,3,Matthew Prater,Longview Spring Hill,107.86,111.13,61.23,120.2,292.57,Single-ply,SBD,M,
Boys,124.74,1,Hughston White,Longview Spring Hill,115.67,201.85,108.86,199.58,510.29,Single-ply,SBD,M,
Boys,124.74,2,Michael Buckley,Longview Spring Hill,124.56,156.49,92.99,183.7,433.18,Single-ply,SBD,M,
Boys,124.74,DQ,Jayden Jones,Longview Pine Tree,123.79,183.7,,,,Single-ply,SBD,M,
Boys,124.74,DQ,Payton Davis,Longview Pine Tree,111.49,,,,,Single-ply,SBD,M,
Boys,,NS,Jacob Juarez,Longview Pine Tree,,92.99,63.5,129.27,,Single-ply,SBD,M,
