Division,WeightClassKg,Place,Name,Team,BodyweightKg,Best3SquatKg,Best3BenchKg,Best3DeadliftKg,TotalKg,Equipment,Event,Sex,BirthDate
Boys,51.71,1,Javier Aleman,Karnes City,51.62,122.47,83.91,129.27,335.66,Single-ply,SBD,M,
Boys,51.71,DQ,Adan Romero,Odem,51.07,,,,,Single-ply,SBD,M,
Boys,55.79,1,Justin Edison,Goliad,55.34,108.86,65.77,122.47,297.1,Single-ply,SBD,M,
Boys,55.79,2,Justin Livas,Goliad,54.88,104.33,61.23,108.86,274.42,Single-ply,SBD,M,
Boys,55.79,DQ,Cameron Haskell,Odem,55.7,,,,,Single-ply,SBD,M,
Boys,59.87,1,Paul Herrera,Floresville,59.06,136.08,90.72,163.29,390.09,Single-ply,SBD,M,
Boys,59.87,2,Nicolas Martinez,Stockdale,56.7,145.15,74.84,147.42,367.41,Single-ply,SBD,M,
Boys,59.87,3,Miguel Elizarraras,Floresville,59.51,102.06,65.77,154.22,322.05,Single-ply,SBD,M,
Boys,59.87,4,Cameron Johns,Floresville,58.24,104.33,83.91,120.2,308.44,Single-ply,SBD,M,
Boys,67.13,1,Lupe Ibarra,Floresville,64.41,172.37,115.67,183.7,471.74,Single-ply,SBD,M,
Boys,67.13,2,Mark Moreno,Odem,64.59,151.95,92.99,170.1,415.04,Single-ply,SBD,M,
Boys,67.13,3,Ashton Gomez,Stockdale,63.78,149.69,86.18,131.54,367.41,Single-ply,SBD,M,
Boys,67.13,4,James Adams,Odem,61.69,124.74,90.72,133.81,349.27,Single-ply,SBD,M,
Boys,67.13,5,Kia McDowell,Goliad,66.22,113.4,74.84,129.27,317.51,Single-ply,SBD,M,
Boys,67.13,6,Peyton Zibelin,Stockdale,66.04,111.13,68.04,122.47,301.64,Single-ply,SBD,M,
Boys,67.13,7,Russell Lover,Karnes City,62.14,104.33,63.5,108.86,276.69,Single-ply,SBD,M,
Boys,67.13,DQ,Christian Martinez,Odem,60.51,,,,,Single-ply,SBD,M,
Boys,67.13,DQ,Daniel García,Floresville,65.86,113.4,83.91,,,Single-ply,SBD,M,
Boys,67.13,DQ,Gavin LaFleur,Floresville,65.14,172.37,106.59,,,Single-ply,SBD,M,
Boys,74.84,1,Zac Nelson,Floresville,73.57,176.9,127.01,188.24,492.15,Single-ply,SBD,M,
Boys,74.84,2,Micheal Kroll,Karnes City,70.03,142.88,111.13,183.7,437.72,Single-ply,SBD,M,
Boys,74.84,3,John Espinoza,Odem,74.48,142.88,90.72,154.22,387.82,Single-ply,SBD,M,
Boys,74.84,4,Alexis Barrera,Goliad,74.53,136.08,74.84,136.08,347,Single-ply,SBD,M,
Boys,74.84,5,Nikolaus Mahlstede,Stockdale,69.31,111.13,77.11,129.27,317.51,Single-ply,SBD,M,
Boys,74.84,6,Antonio Robles,Floresville,74.48,97.52,79.38,129.27,306.17,Single-ply,SBD,M,
Boys,82.1,1,Cesar Solache,Stockdale,81.47,154.22,104.33,179.17,437.72,Single-ply,SBD,M,
Boys,82.1,2,Daniel Arellano,Floresville,79.92,136.08,92.99,174.63,403.7,Single-ply,SBD,M,
Boys,82.1,3,Joshuah Rocha,Floresville,81.37,124.74,77.11,165.56,367.41,Single-ply,SBD,M,
Boys,82.1,4,Alex Beltran,Odem,81.1,108.86,83.91,142.88,335.66,Single-ply,SBD,M,
Boys,89.81,1,Kaden Collins,Goliad,89.36,176.9,97.52,185.97,460.4,Single-ply,SBD,M,
Boys,89.81,2,Jose Barrientos,Stockdale,88.9,140.61,90.72,167.83,399.16,Single-ply,SBD,M,
Boys,99.79,1,Clayton Klekar,Goliad,97.07,226.8,142.88,235.87,605.55,Single-ply,SBD,M,
Boys,99.79,2,Christopher Keiser,Stockdale,97.98,190.51,136.08,222.26,548.85,Single-ply,SBD,M,
Boys,99.79,3,Landon Garza,Odem,93.44,217.72,113.4,192.78,523.9,Single-ply,SBD,M,
Boys,99.79,4,Jason Coronado,Floresville,95.89,192.78,102.06,226.8,521.63,Single-ply,SBD,M,
Boys,99.79,5,Brandon Beltran,Odem,94.8,204.12,131.54,181.44,517.1,Single-ply,SBD,M,
Boys,99.79,6,Steven Nava,Karnes City,96.07,192.78,120.2,201.85,514.83,Single-ply,SBD,M,
Boys,99.79,7,Soloman Bernoski,Karnes City,99.16,142.88,92.99,199.58,435.45,Single-ply,SBD,M,
Boys,99.79,8,Zarek Guerra,Goliad,99.79,170.1,108.86,142.88,421.84,Single-ply,SBD,M,
Boys,99.79,9,Aidan Garza,Karnes City,93.89,142.88,72.57,163.29,378.75,Single-ply,SBD,M,
Boys,109.77,1,Daniel Tamez,Odem,108.59,208.65,113.4,217.72,539.77,Single-ply,SBD,M,
Boys,109.77,2,DJ Nunez,Karnes City,108.32,190.51,129.27,213.19,532.97,Single-ply,SBD,M,
Boys,109.77,3,Kade Bednorz,Goliad,108.86,185.97,129.27,183.7,498.95,Single-ply,SBD,M,
Boys,109.77,4,Dylan Gatica,Karnes City,109.68,142.88,102.06,156.49,401.43,Single-ply,SBD,M,
Boys,124.74,1,LeVerius Gage,Goliad,122.47,258.55,138.35,231.33,628.23,Single-ply,SBD,M,
Boys,124.74,2,Matthew Polasek,Floresville,119.75,226.8,129.27,192.78,548.85,Single-ply,SBD,M,
Boys,124.74,3,Nico Chavira,Odem,115.12,204.12,138.35,190.51,532.97,Single-ply,SBD,M,
Boys,124.74,4,Zakary Guerra,Goliad,113.4,199.58,127.01,174.63,501.22,Single-ply,SBD,M,
Boys,124.74,DQ,Marcus Tristan,Karnes City,124.19,,,,,Single-ply,SBD,M,
