Division,WeightClassKg,Place,Name,Team,BodyweightKg,Best3SquatKg,Best3BenchKg,Best3DeadliftKg,TotalKg,Equipment,Event,Sex,BirthDate
Boys,55.79,DQ,Noah Whittley,Edna,55.7,142.88,,,,Single-ply,SBD,M,
Boys,59.87,1,Tanner Veselka,Vanderbilt Industrial,59.87,136.08,56.7,129.27,322.05,Single-ply,SBD,M,
Boys,59.87,2,Aiden Puente,El Campo,56.52,74.84,52.16,86.18,213.19,Single-ply,SBD,M,
Boys,67.13,1,Chase Macek,El Campo,63.14,172.37,115.67,165.56,453.59,Single-ply,SBD,M,
Boys,67.13,2,Alex Benavides,Vanderbilt Industrial,61.96,149.69,86.18,151.95,387.82,Single-ply,SBD,M,
Boys,67.13,3,Jorge Anguiano,El Campo,63.23,117.93,83.91,142.88,344.73,Single-ply,SBD,M,
Boys,74.84,1,John Sample,Edna,73.48,215.46,113.4,185.97,514.83,Single-ply,SBD,M,
Boys,74.84,2,Aiden Garcia,Edna,74.84,183.7,102.06,195.04,480.81,Single-ply,SBD,M,
Boys,74.84,3,Frank O'Connor,El Campo,74.39,149.69,95.25,163.29,408.23,Single-ply,SBD,M,
Boys,74.84,4,Karson Van Pelt,Vanderbilt Industrial,74.84,151.95,90.72,151.95,394.63,Single-ply,SBD,M,
Boys,74.84,5,Mason Heizer,El Campo,71.3,117.93,92.99,120.2,331.12,Single-ply,SBD,M,
Boys,74.84,6,Robert Perez,El Campo,74.84,58.97,56.7,90.72,206.38,Single-ply,SBD,M,
Boys,82.1,1,Jacob Rosales,Edna,81.01,201.85,136.08,201.85,539.77,Single-ply,SBD,M,
Boys,82.1,2,Dalton Bohannon,Edna,81.78,188.24,108.86,199.58,496.68,Single-ply,SBD,M,
Boys,82.1,3,Tristan Harper,El Campo,81.74,176.9,127.01,172.37,476.27,Single-ply,SBD,M,
Boys,82.1,4,Nick Hernandez,El Campo,81.19,149.69,90.72,154.22,394.63,Single-ply,SBD,M,
Boys,82.1,5,Raymond Rodriguez,El Campo,80.74,120.2,106.59,154.22,381.02,Single-ply,SBD,M,
Boys,82.1,6,Josh Turner,Vanderbilt Industrial,76.2,151.95,74.84,151.95,378.75,Single-ply,SBD,M,
Boys,82.1,7,Vicente Cortez,Edna,80.2,142.88,65.77,147.42,356.07,Single-ply,SBD,M,
Boys,82.1,8,Edgar Perry,Edna,80.29,138.35,70.31,136.08,344.73,Single-ply,SBD,M,
Boys,89.81,1,Jesse Cornish,Vanderbilt Industrial,86.36,226.8,120.2,181.44,528.44,Single-ply,SBD,M,
Boys,99.79,1,Fernando Cortez,Edna,95.25,226.8,117.93,235.87,580.6,Single-ply,SBD,M,
Boys,99.79,2,Clarence Farrow,El Campo,99.79,240.4,136.08,185.97,562.45,Single-ply,SBD,M,
Boys,99.79,3,Jaimie Leal,El Campo,91.63,172.37,111.13,158.76,442.25,Single-ply,SBD,M,
Boys,109.77,1,Devin Johnson,Edna,107.5,233.6,151.95,224.53,610.08,Single-ply,SBD,M,
Boys,109.77,2,Jace Kitchens,Vanderbilt Industrial,107.86,217.72,127.01,195.04,539.77,Single-ply,SBD,M,
Boys,109.77,3,Nick Debo,El Campo,105.28,188.24,149.69,197.31,535.24,Single-ply,SBD,M,
Boys,109.77,4,Zach King,El Campo,108.86,167.83,115.67,183.7,467.2,Single-ply,SBD,M,
Boys,109.77,5,Ezequiel Huitzil,Vanderbilt Industrial,103.87,190.51,92.99,179.17,462.66,Single-ply,SBD,M,
Boys,124.74,1,Kerry North,El Campo,122.11,247.21,172.37,226.8,646.37,Single-ply,SBD,M,
Boys,124.74,2,Juan Leal,El Campo,116.71,281.23,158.76,204.12,644.1,Single-ply,SBD,M,
Boys,124.74,3,Eric Garza,Edna,123.83,247.21,167.83,188.24,603.28,Single-ply,SBD,M,
Boys,124.74,4,Taylor Manriquez,El Campo,111.58,204.12,145.15,197.31,546.58,Single-ply,SBD,M,
Boys,124.74,5,Kohl Powell,Vanderbilt Industrial,111.58,215.46,111.13,208.65,535.24,Single-ply,SBD,M,
Boys,124.74,6,Marcos Ontiveros,El Campo,117.48,163.29,115.67,165.56,444.52,Single-ply,SBD,M,
Boys,124.74,7,Michael Sosa,El Campo,111.04,163.29,113.4,151.95,428.64,Single-ply,SBD,M,
Boys,,NS,Aiden Gonzales,Edna,,,,,,Single-ply,SBD,M,
