Division,WeightClassKg,Place,Name,Team,BodyweightKg,Best3SquatKg,Best3BenchKg,Best3DeadliftKg,TotalKg,Equipment,Event,Sex
Boys,51.71,1,Grayson Danner,Conroe The Woodlands,50.71,140.61,83.91,142.88,367.41,Single-ply,SBD,M
Boys,51.71,2,Daniel Herrera,Navasota,50.44,113.4,70.31,120.2,303.91,Single-ply,SBD,M
Boys,51.71,3,Alex Holland,Conroe The Woodlands,51.17,95.25,54.43,129.27,278.96,Single-ply,SBD,M
Boys,55.79,4,Cade Logan,Magnolia West,51.75,99.79,58.97,120.2,278.96,Single-ply,SBD,M
Boys,51.71,5,Ryan Kerr,Conroe Woodlands College Park,50.71,99.79,63.5,113.4,276.69,Single-ply,SBD,M
Boys,51.71,6,Tristan McDaniel,Navasota,48.81,90.72,49.9,106.59,247.21,Single-ply,SBD,M
Boys,51.71,7,Dylan Mikus,Magnolia West,44.45,83.91,56.7,99.79,240.4,Single-ply,SBD,M
Boys,59.87,1,Joseph Herrera #2,Navasota,55.97,149.69,90.72,149.69,390.09,Single-ply,SBD,M
Boys,55.79,2,Gavin Webster,Conroe The Woodlands,55.34,140.61,83.91,158.76,383.29,Single-ply,SBD,M
Boys,55.79,3,Arthur Maya,Navasota,55.79,140.61,90.72,145.15,376.48,Single-ply,SBD,M
Boys,55.79,4,Timarcus Davis,College Station,55.25,151.95,63.5,124.74,340.19,Single-ply,SBD,M
Boys,55.79,5,Corey Colon,Conroe Woodlands College Park,55.43,124.74,61.23,138.35,324.32,Single-ply,SBD,M
Boys,55.79,6,Jakobe McGinty,Navasota,55.79,115.67,58.97,102.06,276.69,Single-ply,SBD,M
Boys,55.79,7,Rodrigo Hernandez,Caldwell,55.11,104.33,63.5,106.59,274.42,Single-ply,SBD,M
Boys,55.79,DQ,Carlos Aguilar,Bryan,55.79,,,,,Single-ply,SBD,M
Boys,59.87,DQ,Trey Creeks,Navasota,55.88,,,,,Single-ply,SBD,M
Boys,55.79,DQ,Cooper Houston,Montgomery,54.88,154.22,86.18,,,Single-ply,SBD,M
Boys,59.87,1,Braden Tschirhart,College Station,59.19,174.63,97.52,165.56,437.72,Single-ply,SBD,M
Boys,59.87,2,Cody Tunning,Montgomery,57.83,167.83,95.25,147.42,410.5,Single-ply,SBD,M
Boys,67.13,3,Hunter Berry,Sealy,60.1,151.95,65.77,147.42,365.14,Single-ply,SBD,M
Boys,59.87,DQ,Sebastien Garcia,Conroe The Woodlands,59.87,,,,,Single-ply,SBD,M
Boys,67.13,1,Garrett Shantz,Montgomery,64.41,204.12,117.93,219.99,542.04,Single-ply,SBD,M
Boys,74.84,2,Noah Steptoe,Navasota,67.31,213.19,111.13,192.78,517.1,Single-ply,SBD,M
Boys,67.13,3,Travis Stone,Rogers,66.9,188.24,97.52,190.51,476.27,Single-ply,SBD,M
Boys,67.13,4,Cameron Gray #2,Navasota,63.41,176.9,97.52,197.31,471.74,Single-ply,SBD,M
Boys,67.13,5,Kyle Stafford,Navasota,63.28,195.04,102.06,172.37,469.47,Single-ply,SBD,M
Boys,67.13,6,Josh Oldag,Sealy,62.37,174.63,97.52,170.1,442.25,Single-ply,SBD,M
Boys,67.13,7,Zach Hawkins,Conroe The Woodlands,65.54,136.08,111.13,165.56,412.77,Single-ply,SBD,M
Boys,74.84,8,Byron Williams,Bryan,67.36,149.69,90.72,172.37,412.77,Single-ply,SBD,M
Boys,67.13,9,Chris Monroe,College Station,62.6,147.42,90.72,170.1,408.23,Single-ply,SBD,M
Boys,67.13,10,Devyon Halloran,College Station,64.41,158.76,81.65,158.76,399.16,Single-ply,SBD,M
Boys,67.13,DQ,Blaine Wootan,College Station,67.13,,,,,Single-ply,SBD,M
Boys,74.84,1,Carlos Lucio,Bryan,73.71,244.94,156.49,199.58,601.01,Single-ply,SBD,M
Boys,74.84,2,Franteric Powell,Navasota,72.26,231.33,127.01,231.33,589.67,Single-ply,SBD,M
Boys,74.84,3,Victor De La Garza,Brookshire Royal,72.21,195.04,117.93,195.04,508.02,Single-ply,SBD,M
Boys,74.84,4,Antwone Wallace,Bryan,74.16,195.04,104.33,190.51,489.88,Single-ply,SBD,M
Boys,74.84,5,Eddison Carrington,Montgomery,71.89,181.44,127.01,158.76,467.2,Single-ply,SBD,M
Boys,74.84,6,Caleb Hall,Montgomery,67.59,167.83,104.33,163.29,435.45,Single-ply,SBD,M
Boys,74.84,7,Nathan Ellard,College Station,72.48,158.76,95.25,163.29,417.3,Single-ply,SBD,M
Boys,74.84,8,Jason Dutchske,Caldwell,73.84,158.76,86.18,154.22,399.16,Single-ply,SBD,M
Boys,74.84,9,Christain Horstman,Brookshire Royal,68.99,165.56,68.04,142.88,376.48,Single-ply,SBD,M
Boys,74.84,DQ,Jackson Waggner,Bryan,74.84,,,,,Single-ply,SBD,M
Boys,74.84,DQ,Noah Fletcher,Conroe Woodlands College Park,71.89,163.29,,,,Single-ply,SBD,M
Boys,82.1,1,Austin Cude,Navasota,82.1,224.53,149.69,222.26,596.47,Single-ply,SBD,M
Boys,82.1,2,Dave Harris #2,Navasota,80.51,201.85,102.06,188.24,492.15,Single-ply,SBD,M
Boys,82.1,3,Will Smith #3,Navasota,81.65,204.12,106.59,176.9,487.61,Single-ply,SBD,M
Boys,82.1,4,Taylor Soto,Navasota,81.74,170.1,104.33,185.97,460.4,Single-ply,SBD,M
Boys,82.1,5,Lenard Abke,Navasota,77.2,192.78,90.72,163.29,446.79,Single-ply,SBD,M
Boys,82.1,6,Kyle Brennan,Conroe The Woodlands,77.11,170.1,99.79,174.63,444.52,Single-ply,SBD,M
Boys,82.1,7,Eugene Bizer,Conroe The Woodlands,78.7,129.27,86.18,158.76,374.21,Single-ply,SBD,M
Boys,82.1,DQ,Grant Farley,Conroe The Woodlands,82.1,,,,,Single-ply,SBD,M
Boys,82.1,DQ,Joey Lilly,Hempstead,82.1,,,,,Single-ply,SBD,M
Boys,82.1,DQ,Patrick Clouston,College Station,77.11,181.44,,,,Single-ply,SBD,M
Boys,89.81,1,Desmond Payton,College Station,87.91,292.57,115.67,285.76,694,Single-ply,SBD,M
Boys,89.81,2,Auston Ellis,Bryan Rudder,86.41,278.96,161.03,238.14,678.12,Single-ply,SBD,M
Boys,99.79,3,Desmond Calhoun,Navasota,89.99,219.99,127.01,281.23,628.23,Single-ply,SBD,M
Boys,89.81,4,Joseph Mendoza,Giddings,88.9,249.48,113.4,249.48,612.35,Single-ply,SBD,M
Boys,89.81,5,Kaleb Miears,College Station,88,240.4,131.54,204.12,576.06,Single-ply,SBD,M
Boys,89.81,6,Tyrique Hayes,College Station,88.22,226.8,145.15,204.12,576.06,Single-ply,SBD,M
Boys,89.81,7,Derrion Randle,Navasota,89.58,226.8,124.74,215.46,566.99,Single-ply,SBD,M
Boys,99.79,8,David Rameriz,Navasota,90.04,233.6,127.01,183.7,544.31,Single-ply,SBD,M
Boys,89.81,9,Cody Mullens,Montgomery,83.91,199.58,145.15,192.78,537.51,Single-ply,SBD,M
Boys,89.81,10,Darrell Fobs,Brookshire Royal,87.91,213.19,104.33,210.92,528.44,Single-ply,SBD,M
Boys,89.81,11,Carter Clouston,College Station,86.23,192.78,108.86,192.78,494.42,Single-ply,SBD,M
Boys,89.81,12,Garrett Grant,College Station,85.05,195.04,106.59,181.44,483.08,Single-ply,SBD,M
Boys,89.81,13,Zach Loane,Conroe The Woodlands,85.73,172.37,95.25,204.12,471.74,Single-ply,SBD,M
Boys,89.81,14,Bradley Dorsett,College Station,88.9,158.76,97.52,147.42,403.7,Single-ply,SBD,M
Boys,89.81,15,Tommy Macdougald,Conroe The Woodlands,87.14,136.08,83.91,167.83,387.82,Single-ply,SBD,M
Boys,89.81,DQ,Fabian Harvey,Hempstead,89.81,,,,,Single-ply,SBD,M
Boys,89.81,DQ,Christian Trujillo,Hempstead,89.81,,,,,Single-ply,SBD,M
Boys,89.81,DQ,Danny Barrientos,College Station,89.81,,,,,Single-ply,SBD,M
Boys,89.81,DQ,Jared McHazlett,Burnet,88.45,197.31,117.93,,,Single-ply,SBD,M
Boys,99.79,1,Quinterrian White,College Station,97.61,288.03,154.22,269.89,712.14,Single-ply,SBD,M
Boys,99.79,2,Tyler Ray,Magnolia West,94.26,235.87,170.1,226.8,632.76,Single-ply,SBD,M
Boys,99.79,3,Tyler Talbott,Rogers,96.62,229.06,113.4,181.44,523.9,Single-ply,SBD,M
Boys,99.79,4,Cameron Dittert,Sealy,98.34,217.72,120.2,185.97,523.9,Single-ply,SBD,M
Boys,99.79,5,Rene Troche,Conroe The Woodlands,91.53,199.58,90.72,226.8,517.1,Single-ply,SBD,M
Boys,99.79,6,Chaz Cavanaugh,Navasota,98.2,199.58,108.86,204.12,512.56,Single-ply,SBD,M
Boys,99.79,7,Mason Storrs,Magnolia West,95.25,201.85,117.93,181.44,501.22,Single-ply,SBD,M
Boys,109.77,8,Dorian Meyers,Navasota,100.02,190.51,115.67,183.7,489.88,Single-ply,SBD,M
Boys,99.79,DQ,Keith Hood,Hempstead,99.79,,,,,Single-ply,SBD,M
Boys,99.79,DQ,Jason Paul,Conroe Woodlands College Park,99.79,,,,,Single-ply,SBD,M
Boys,109.77,1,Trey Taylor,Brookshire Royal,106.14,258.55,154.22,231.33,644.1,Single-ply,SBD,M
Boys,124.74,2,Kurt Bollinger,Sealy,110,254.01,170.1,213.19,637.3,Single-ply,SBD,M
Boys,109.77,3,Kee Kee Johnson,Bryan,103.87,240.4,122.47,238.14,601.01,Single-ply,SBD,M
Boys,109.77,4,Drew Rodriguez,College Station,107.5,244.94,131.54,208.65,585.13,Single-ply,SBD,M
Boys,109.77,5,Artie Reyes,Bryan,106.59,233.6,142.88,206.38,582.87,Single-ply,SBD,M
Boys,109.77,6,Sam Grubbs #2,Conroe Woodlands College Park,106.19,231.33,124.74,208.65,564.72,Single-ply,SBD,M
Boys,109.77,7,Cal Bauer,Navasota,103.06,199.58,145.15,208.65,553.38,Single-ply,SBD,M
Boys,109.77,8,Jake Hollech,Magnolia West,107.5,206.38,149.69,195.04,551.11,Single-ply,SBD,M
Boys,109.77,9,Johnaton Gonzales,Bryan,103.65,217.72,122.47,204.12,544.31,Single-ply,SBD,M
Boys,109.77,10,Luis Espinola,Conroe Woodlands College Park,100.24,188.24,138.35,213.19,539.77,Single-ply,SBD,M
Boys,109.77,11,Josh Miller,Montgomery,107.05,199.58,138.35,197.31,535.24,Single-ply,SBD,M
Boys,124.74,1,Michael Cadena,Bryan,122.7,326.59,197.31,281.23,805.13,Single-ply,SBD,M
Boys,124.74,2,Gustavo Bonilla,Robinson,118.84,244.94,158.76,258.55,662.24,Single-ply,SBD,M
Boys,124.74,3,Jose Guevara,Magnolia West,117.93,249.48,163.29,247.21,659.98,Single-ply,SBD,M
Boys,124.74,4,James Hayes,College Station,117.48,260.82,142.88,244.94,648.64,Single-ply,SBD,M
Boys,124.74,5,Charles Owens,Bryan Rudder,119.75,267.62,136.08,231.33,635.03,Single-ply,SBD,M
Boys,124.74,6,Roberto Requena,Caldwell,110.68,242.67,129.27,247.21,619.15,Single-ply,SBD,M
Boys,124.74,7,Christian Jones,Navasota,117.75,254.01,145.15,217.72,616.89,Single-ply,SBD,M
Boys,124.74,8,Tyler Thompson,Rogers,114.85,235.87,131.54,206.38,573.79,Single-ply,SBD,M
Boys,124.74,9,Chris Head,Bryan,113.62,172.37,90.72,158.76,421.84,Single-ply,SBD,M
Boys,124.74,DQ,Zachery Handrick,Giddings,124.74,,,,,Single-ply,SBD,M
Boys,124.74+,1,Jordan Wells,Navasota,128.46,294.84,190.51,281.23,766.57,Single-ply,SBD,M
Boys,124.74+,2,Cory Ross,Navasota,126.1,238.14,172.37,213.19,623.69,Single-ply,SBD,M
Boys,124.74+,3,Jordan Seymore,College Station,125.19,254.01,129.27,217.72,601.01,Single-ply,SBD,M
Boys,124.74+,4,Donall Watson,Hempstead,128.28,240.4,124.74,185.97,551.11,Single-ply,SBD,M
Boys,124.74+,5,Kevin Hurtado,Conroe Woodlands College Park,142.02,229.06,120.2,201.85,551.11,Single-ply,SBD,M
Boys,124.74+,DQ,Anthony Woods,Navasota,125.01,,,,,Single-ply,SBD,M
Boys,124.74+,DQ,Nathaniel Grant,Conroe Woodlands College Park,133.27,213.19,106.59,,,Single-ply,SBD,M
