Division,WeightClassKg,Place,Name,Team,BodyweightKg,Best3SquatKg,Best3BenchKg,Best3DeadliftKg,TotalKg,Equipment,Event,Sex,BirthDate
Boys,51.71,1,Alfred Garcia,San Antonio Southwest,51.71,172.37,90.72,181.44,444.52,Single-ply,SBD,M,
Boys,51.71,2,Aiden Flores,Nixon Smiley,51.71,108.86,65.77,124.74,299.37,Single-ply,SBD,M,
Boys,51.71,3,Anthony Castro,Gonzales,50.53,108.86,61.23,122.47,292.57,Single-ply,SBD,M,
Boys,51.71,4,Cesar Vasquez,Nixon Smiley,50.26,115.67,56.7,117.93,290.3,Single-ply,SBD,M,
Boys,51.71,5,Josh Ramirez,Somerset,51.71,104.33,52.16,133.81,290.3,Single-ply,SBD,M,
Boys,51.71,6,Daniel García,Gonzales,51.71,92.99,49.9,113.4,256.28,Single-ply,SBD,M,
Boys,59.87,1,Blake Frye,Somerset,59.87,151.95,70.31,183.7,405.97,Single-ply,SBD,M,
Boys,59.87,2,Tyler Barrientez,Nixon Smiley,57.42,151.95,83.91,147.42,383.29,Single-ply,SBD,M,
Boys,59.87,3,John Garza,Nixon Smiley,59.51,133.81,72.57,133.81,340.19,Single-ply,SBD,M,
Boys,59.87,4,Jacob Torres,San Antonio Southwest,59.42,111.13,63.5,117.93,292.57,Single-ply,SBD,M,
Boys,67.13,1,Cesar Matamoros,Gonzales,67.04,208.65,117.93,195.04,521.63,Single-ply,SBD,M,
Boys,67.13,2,Jessiah Barr,Gonzales,65.09,192.78,124.74,199.58,517.1,Single-ply,SBD,M,
Boys,67.13,3,Jayden Cruz,San Antonio Southwest,66.13,188.24,111.13,181.44,480.81,Single-ply,SBD,M,
Boys,67.13,4,Oscar Acosta,Nixon Smiley,66.04,167.83,115.67,185.97,469.47,Single-ply,SBD,M,
Boys,67.13,5,Noah Garcia,Somerset,65.41,165.56,129.27,158.76,453.59,Single-ply,SBD,M,
Boys,67.13,6,Armando Medel,Nixon Smiley,66.13,165.56,102.06,185.97,453.59,Single-ply,SBD,M,
Boys,67.13,7,Tristin Quintanilla,San Antonio Southwest,66.68,170.1,83.91,183.7,437.72,Single-ply,SBD,M,
Boys,67.13,8,Adolfo Vasquez,Nixon Smiley,61.69,142.88,74.84,106.59,324.32,Single-ply,SBD,M,
Boys,74.84,1,Josiah Lugo,Somerset,73.12,249.48,158.76,204.12,612.35,Single-ply,SBD,M,
Boys,74.84,2,Sergio Garcia,San Antonio Southwest,68.95,151.95,129.27,170.1,451.32,Single-ply,SBD,M,
Boys,74.84,3,Donovan De Los Santos,San Antonio Southwest,72.57,163.29,97.52,161.03,421.84,Single-ply,SBD,M,
Boys,74.84,DQ,Sergio Gonzales,San Antonio Southwest,68.95,,,,,Single-ply,SBD,M,
Boys,82.1,1,Omar Morales Navarro,Nixon Smiley,81.28,204.12,136.08,224.53,564.72,Single-ply,SBD,M,
Boys,82.1,2,David Garcia,Somerset,79.74,197.31,142.88,206.38,546.58,Single-ply,SBD,M,
Boys,82.1,3,Jesus Espino,Nixon Smiley,81.56,199.58,120.2,201.85,521.63,Single-ply,SBD,M,
Boys,82.1,4,Jose Olvera,Nixon Smiley,79.74,151.95,102.06,142.88,396.89,Single-ply,SBD,M,
Boys,99.79,1,Gerardo Cantu,Somerset,98.79,263.08,147.42,231.33,641.83,Single-ply,SBD,M,
Boys,99.79,2,Layne Thiele,Gonzales,96.62,244.94,149.69,233.6,628.23,Single-ply,SBD,M,
Boys,99.79,3,Blake Chessler,San Antonio Southwest,96.71,183.7,149.69,272.16,605.55,Single-ply,SBD,M,
Boys,99.79,4,Salvador Sanchez,Somerset,94.26,226.8,142.88,204.12,573.79,Single-ply,SBD,M,
Boys,99.79,5,Hipolito Salazar,San Antonio Southwest,90.54,233.6,115.67,201.85,551.11,Single-ply,SBD,M,
Boys,109.77,1,Steven Terrazas,Somerset,109.77,297.1,210.92,251.74,759.77,Single-ply,SBD,M,
Boys,124.74,1,Frankie Castillo,Somerset,117.84,317.51,163.29,215.46,696.26,Single-ply,SBD,M,
Boys,124.74,2,Daniel Solis,Somerset,110.86,226.8,147.42,215.46,589.67,Single-ply,SBD,M,
Boys,124.74,DQ,Jaden Perez,San Antonio Brackenridge,112.31,206.38,151.95,,,Single-ply,SBD,M,
Boys,139.71,1,Abraham Vasquez,Somerset,131.54,285.76,172.37,249.48,707.6,Single-ply,SBD,M,
Boys,139.71,2,Adam Delgado,San Antonio Southwest,131.18,247.21,142.88,226.8,616.89,Single-ply,SBD,M,
Boys,139.71,3,Omar Borjon,Gonzales,129.82,226.8,142.88,163.29,532.97,Single-ply,SBD,M,
Boys,139.71,DQ,Kaleb Rector,San Antonio Brackenridge,139.53,192.78,129.27,,,Single-ply,SBD,M,
Boys,139.71+,1,Javier Adams,Somerset,172.86,192.78,188.24,210.92,591.94,Single-ply,SBD,M,
Boys,139.71+,2,Jakob Perez,Somerset,151.05,226.8,127.01,165.56,519.36,Single-ply,SBD,M,
Boys,139.71+,3,Jose Perez,Nixon Smiley,142.43,192.78,142.88,158.76,494.42,Single-ply,SBD,M,
Boys,,NS,Jason Adams,Nixon Smiley,,,,,,Single-ply,SBD,M,
