Name,State,Division,BodyweightKg,WeightClassKg,Squat1Kg,Squat2Kg,Squat3Kg,Best3SquatKg,Bench1Kg,Bench2Kg,Bench3Kg,Best3BenchKg,Deadlift1Kg,Deadlift2Kg,Deadlift3Kg,Best3DeadliftKg,TotalKg,Sex,Event,Place,Equipment,BirthDate
Lenka Pilnikova,NW,FR-O,46.5,47,95,-97.5,100,100,67.5,70.5,72.5,72.5,130,135,138,138,310.5,F,SBD,1,Raw,
Michelle Ryder,GL,FR-M1,43.8,47,60,65,70,70,40,-45,45,45,110,-115,115,115,230,F,SBD,1,Raw,
Imelda Flanagan,EM,FR-M2,40.6,47,67.5,72.5,75,75,35,37.5,40,40,100,105,107.5,107.5,222.5,F,SBD,1,Raw,
Jaime Lei Fuller,SW,FR-Sj,51.6,52,95,100.5,105,105,55,60.5,-65,60.5,112.5,-117.5,-123,112.5,278,F,SBD,1,Raw,
Tiarna Pearce,GL,FR-Jr,51.9,52,117.5,122.5,125,125,52.5,55,57.5,57.5,130,140,150,150,332.5,F,SBD,1,Raw,
Alex Bates #1,EM,FR-O,51.6,52,112.5,117.5,-122.5,117.5,62.5,67.5,70,70,117.5,125,-130,125,312.5,F,SBD,1,Raw,
Natalie Banks,NW,FR-O,50.9,52,90,92.5,-95,92.5,60,-62.5,62.5,62.5,140,145,,145,300,F,SBD,2,Raw,
Tania Robins,NW,FR-O,50.4,52,95,100,102.5,102.5,-50,50,-55,50,127.5,135,-142.5,135,287.5,F,SBD,3,Raw,
Rei Townsend,SM,FR-O,50.8,52,-85,87.5,92.5,92.5,52.5,-55,55,55,-120,122.5,130,130,277.5,F,SBD,4,Raw,
Sofia Rufus,SW,FR-M1,51.4,52,-112.5,117.5,121,121,52.5,-57.5,-57.5,52.5,112.5,122.5,-130,122.5,296,F,SBD,1,Raw,
Amanda Winter,SW,FR-M1,49.3,52,77.5,85,90,90,50,55,60,60,100,107.5,112.5,112.5,262.5,F,SBD,2,Raw,
Romina Basting,EM,F-O,52,52,132.5,137.5,140,140,72.5,-77.5,77.5,77.5,100,110,120,120,337.5,F,SBD,1,Single-ply,
Stacie Jones,YNE,FR-Jr,56.8,57,-130,-135,135,135,65,70,72.5,72.5,135,145,150,150,357.5,F,SBD,1,Raw,
Sabrina Rew,SW,FR-Jr,56.2,57,120,127.5,132.5,132.5,65,70,72.5,72.5,135,142.5,-155,142.5,347.5,F,SBD,2,Raw,
Joely Hawke,GL,FR-Jr,55.9,57,110,115,120,120,65,67.5,70,70,132.5,140,145,145,335,F,SBD,3,Raw,
Ruth Saliu,,FR-Jr,54.7,57,97.5,102.5,107.5,107.5,60,62.5,-65,62.5,137.5,145,152.5,152.5,322.5,F,SBD,4,Raw,
Lydia Forrest,SE,FR-Jr,55.6,57,107.5,112.5,-117.5,112.5,60,62.5,-65,62.5,125,130,135,135,310,F,SBD,5,Raw,
Moya Williams,GL,FR-O,56.8,57,120,125,127.5,127.5,60,65,70,70,190,200,203.5,203.5,401,F,SBD,1,Raw,
Jodie Cook #1,WM,FR-O,56.8,57,127.5,135,-140,135,80,-85,85,85,160,172.5,180,180,400,F,SBD,2,Raw,
Makeda Vidal,GL,FR-O,55.8,57,147.5,155,-160,155,65,-70,-70,65,165,-175,175,175,395,F,SBD,3,Raw,
Catherine Smith,WM,FR-O,53.9,57,125,135,140,140,55,-60,60,60,167.5,182.5,-195,182.5,382.5,F,SBD,4,Raw,
Sonia Fierro,GL,FR-O,56.3,57,120,125,127.5,127.5,62.5,-67.5,-67.5,62.5,160,170,180,180,370,F,SBD,5,Raw,
Claire Burns,NM,FR-O,56.5,57,107.5,112.5,117.5,117.5,70,72.5,75,75,150,157.5,-160,157.5,350,F,SBD,6,Raw,
Emily Przeslak,GL,FR-O,56.8,57,110,115,117.5,117.5,60,65,67.5,67.5,135,142.5,147.5,147.5,332.5,F,SBD,7,Raw,
Jessica Terry,YNE,FR-O,55.7,57,100,107.5,-110,107.5,57.5,60,62.5,62.5,137.5,145,152.5,152.5,322.5,F,SBD,8,Raw,
Suzana Sorokova,GL,FR-O,55.3,57,100,107.5,110,110,55,60,-65,60,125,135,-145,135,305,F,SBD,9,Raw,
Debbie Bell,GL,FR-O,55.1,57,100,105,-107.5,105,55,57.5,-60,57.5,132.5,140,-145,140,302.5,F,SBD,10,Raw,
Anastasia Harmer,GL,FR-O,56.4,57,87.5,95,100,100,57.5,-62.5,62.5,62.5,125,132.5,140,140,302.5,F,SBD,11,Raw,
Navta Massand,WM,FR-O,56,57,102.5,110,115,115,42.5,47.5,50,50,127.5,135,-142.5,135,300,F,SBD,12,Raw,
Bryony Farlow,WM,FR-O,56.3,57,102.5,110,-112.5,110,40,45,47.5,47.5,117.5,125,-130,125,282.5,F,SBD,13,Raw,
Anoula Rayburn,GL,FR-O,56,57,90,97.5,102.5,102.5,55,60,-62.5,60,100,110,115,115,277.5,F,SBD,14,Raw,
Felicity Sadler,EM,FR-O,55.9,57,95,-102.5,-102.5,95,50,55,57.5,57.5,105,112.5,117.5,117.5,270,F,SBD,15,Raw,
Melissa Henderson,YNE,FR-O,55.5,57,77.5,82.5,-87.5,82.5,-50,52.5,-57.5,52.5,125,-132.5,-132.5,125,260,F,SBD,16,Raw,
Tamar Aliphon,SM,FR-O,54.3,57,80,85,90,90,42.5,-45,-45,42.5,105,115,120,120,252.5,F,SBD,17,Raw,
Donna Bradbury,NW,FR-M1,55.2,57,-125,125,127.5,127.5,60,65,67.5,67.5,142.5,150,-155,150,345,F,SBD,1,Raw,
Emma Drackford,SM,FR-M1,56.2,57,115,120,125.5,125.5,52.5,57.5,-60,57.5,117.5,122.5,127.5,127.5,310.5,F,SBD,2,Raw,
Karenjeet Bains,WM,FR-Jr,62.4,63,130,-135,,130,75,80,-82.5,80,152.5,-160,,152.5,362.5,F,SBD,1,Raw,
Mollie Thorpe,SW,FR-Jr,60.2,63,117.5,125,132.5,132.5,60,67.5,-70,67.5,125,135,142.5,142.5,342.5,F,SBD,2,Raw,
Elizabeth Hawkins,WM,FR-Jr,61,63,107.5,115,120,120,55,60,-62.5,60,125,132.5,140,140,320,F,SBD,3,Raw,
Tamsin Ribton-Turner,SM,FR-Jr,60.3,63,100,107.5,115,115,55,60,62.5,62.5,110,120,127.5,127.5,305,F,SBD,4,Raw,
Luisa Vargas,GL,FR-Jr,62.2,63,102.5,107.5,110,110,57.5,60,-62.5,60,120,130,135,135,305,F,SBD,5,Raw,
Fern Wilson,NM,FR-Jr,62.1,63,90,97.5,-102.5,97.5,55,57.5,-60,57.5,100,107.5,112.5,112.5,267.5,F,SBD,6,Raw,
Moa Wikner,GL,FR-O,62.4,63,145,-150,-150,145,87.5,90,-92.5,90,172.5,182.5,-187.5,182.5,417.5,F,SBD,1,Raw,
Grace Stilgoe,GL,FR-O,62.2,63,-145,145,150,150,-77.5,80,82.5,82.5,165,172.5,-177.5,172.5,405,F,SBD,2,Raw,
Elspeth McLeod,YNE,FR-O,61.6,63,127.5,137.5,-140,137.5,90,-97.5,-101,90,-140,140,155,155,382.5,F,SBD,3,Raw,
Karen Lai,GL,FR-O,62.3,63,132.5,137.5,-142.5,137.5,82.5,87.5,90,90,145,155,-160,155,382.5,F,SBD,4,Raw,
Stephanie Pike,YNE,FR-O,60.3,63,125,130,-135,130,67.5,70,-72.5,70,180,-190,-190,180,380,F,SBD,5,Raw,
Sophie Hardy,NM,FR-O,61.2,63,130,-135,135,135,72.5,75,,75,135,142.5,147.5,147.5,357.5,F,SBD,6,Raw,
Katie Gorden,EM,FR-O,62.5,63,115,120,125,125,55,62.5,65,65,140,152.5,-155,152.5,342.5,F,SBD,7,Raw,
Kate Barnes,EM,FR-O,63,63,105,-107.5,110,110,65,67.5,-70,67.5,157.5,160,165,165,342.5,F,SBD,8,Raw,
Laura Howlett,EM,FR-O,61.6,63,100,107.5,112.5,112.5,60,62.5,65,65,150,-155,-155,150,327.5,F,SBD,9,Raw,
Ana Rubio Denniss,GL,FR-O,62.1,63,-115,117.5,120,120,62.5,65,-67.5,65,132.5,137.5,142.5,142.5,327.5,F,SBD,10,Raw,
Alice Coates,YNE,FR-O,61.5,63,100,107.5,112.5,112.5,52.5,57.5,60,60,125,132.5,140,140,312.5,F,SBD,11,Raw,
Laura Battersby,NM,FR-O,62.3,63,95,-100,100,100,60,-62.5,62.5,62.5,140,150,-155,150,312.5,F,SBD,12,Raw,
Terezia Borcsok,WM,FR-O,62.8,63,110,115,120,120,50,55,-57.5,55,122.5,130,137.5,137.5,312.5,F,SBD,13,Raw,
Samantha Henderson,EM,FR-O,61.3,63,105,110,-115,110,60,62.5,65,65,120,125,130,130,305,F,SBD,14,Raw,
Nicola Day,EM,FR-O,61.9,63,100,107.5,-112.5,107.5,60,65,67.5,67.5,122.5,130,-137.5,130,305,F,SBD,15,Raw,
Nasreen Ahmed Brooker,WM,FR-O,61.5,63,107.5,-112.5,-112.5,107.5,50,-55,55,55,127.5,137.5,-142.5,137.5,300,F,SBD,16,Raw,
Jana Civelova,GL,FR-O,62.6,63,100,105,-110,105,47.5,50,-52.5,50,127.5,-130,-130,127.5,282.5,F,SBD,17,Raw,
Maddie Zitman,YNE,FR-M1,61.7,63,105,-110,-110,105,-60,60,-62.5,60,110,120,130,130,295,F,SBD,1,Raw,
Libby Brinkler,EM,FR-M1,61.4,63,85,-92.5,-95,85,52.5,57.5,60,60,105,112.5,120,120,265,F,SBD,2,Raw,
Alison Jones,GL,FR-M2,62.2,63,-97.5,97.5,-102.5,97.5,55,-57.5,,55,120,130,137.5,137.5,290,F,SBD,1,Raw,
Tree Grennan,YNE,FR-M2,59.4,63,72.5,-77.5,77.5,77.5,40,-45,-45,40,92.5,102.5,-107.5,102.5,220,F,SBD,2,Raw,
Mona Smith #2,SM,FR-M2,62.2,63,70,75,-77.5,75,42.5,-45,-45,42.5,95,100,-107.5,100,217.5,F,SBD,3,Raw,
Lucy Hart,SM,F-O,60.4,63,155,162.5,167.5,167.5,77.5,82.5,85,85,150,-160,160,160,412.5,F,SBD,1,Single-ply,
Galit Goldshmid,SM,F-M1,61,63,142.5,-147.5,147.5,147.5,-90,90,-95,90,157.5,165,-170,165,402.5,F,SBD,1,Single-ply,
Daniella-Jade Chester,SW,FR-Sj,67.6,72,77.5,85,90,90,47.5,52.5,57.5,57.5,95,105,115,115,262.5,F,SBD,1,Raw,
Sophia Ellis,GL,FR-Jr,71.4,72,127.5,135,142.5,142.5,90,97.5,-100,97.5,182.5,192.5,,192.5,432.5,F,SBD,1,Raw,
Sian Arterton,EM,FR-Jr,71,72,145,152.5,155,155,80,-85,-85,80,147.5,155,-160,155,390,F,SBD,2,Raw,
Jess Bagdonas,GL,FR-Jr,71.1,72,115,125,-135,125,62.5,67.5,-70,67.5,145,157.5,-165,157.5,350,F,SBD,3,Raw,
Lily Erskine,EM,FR-Jr,66.3,72,110,115,120,120,62.5,67.5,-70,67.5,135,142.5,147.5,147.5,335,F,SBD,5,Raw,
Chloe Bartrum,EM,FR-Jr,71,72,117.5,125,132.5,132.5,60,65,70,70,125,135,140,140,342.5,F,SBD,4,Raw,
Sheri Miles,SE,FR-O,71.7,72,142.5,152.5,155,155,87.5,90,-95,90,185,200,205,205,450,F,SBD,1,Raw,
Emily Greenway,SW,FR-O,71.3,72,165,172.5,-175,172.5,75,77.5,-80,77.5,170,182.5,-187.5,182.5,432.5,F,SBD,2,Raw,
Sophie Culshaw,EM,FR-O,71.1,72,165,170,172.5,172.5,80,82.5,85,85,157.5,165,172.5,172.5,430,F,SBD,3,Raw,
Rosie Howard,YNE,FR-O,71.5,72,130,137.5,142.5,142.5,75,80,-82.5,80,182.5,195,203,203,425.5,F,SBD,4,Raw,
Rachel Bradish,YNE,FR-O,70.4,72,145,-152.5,-152.5,145,-80,85,-90,85,170,180,185,185,415,F,SBD,5,Raw,
Florence Walton,SE,FR-O,70.2,72,152.5,-160,160,160,77.5,82.5,87.5,87.5,155,165,-170,165,412.5,F,SBD,6,Raw,
Emily Williams #1,GL,FR-O,71.4,72,147.5,157.5,-165,157.5,65,70,-75,70,150,162.5,-172.5,162.5,390,F,SBD,7,Raw,
Abigail Simmons,SW,FR-O,68.5,72,125,132.5,137.5,137.5,70,75,-80,75,150,160,167.5,167.5,380,F,SBD,8,Raw,
Lucy Glover,GL,FR-O,72,72,137.5,142.5,-145,142.5,80,82.5,-85,82.5,147.5,152.5,-160,152.5,377.5,F,SBD,9,Raw,
Lianne Brook,WM,FR-O,69.8,72,122.5,130,135,135,67.5,72.5,75,75,142.5,145,157.5,157.5,367.5,F,SBD,10,Raw,
Bea Wright,SW,FR-O,67.5,72,120,-125,-127.5,120,72.5,-75,75,75,142.5,147.5,-152.5,147.5,342.5,F,SBD,11,Raw,
Kenlyn Stewart,GL,FR-O,72,72,112.5,117.5,122.5,122.5,60,65,-67.5,65,140,-150,150,150,337.5,F,SBD,12,Raw,
Shannon Rigler,SM,FR-O,68.5,72,112.5,-117.5,-117.5,112.5,57.5,-62.5,-62.5,57.5,140,147.5,155,155,325,F,SBD,14,Raw,
Amy-Rose Deffley,WM,FR-O,71.2,72,120,-125,125,125,-55,57.5,60,60,145,-160,-160,145,330,F,SBD,13,Raw,
Rachael Atkinson,YNE,FR-O,67.3,72,85,-95,-102.5,85,65,70,72.5,72.5,127.5,142.5,150,150,307.5,F,SBD,16,Raw,
Samantha Cadman,YNE,FR-O,71.3,72,-95,95,100,100,65,70,-75,70,130,140,-145,140,310,F,SBD,15,Raw,
Lottie Hall #1,EM,FR-O,71.4,72,115,-122.5,-122.5,115,52.5,57.5,-60,57.5,127.5,-132.5,-132.5,127.5,300,F,SBD,17,Raw,
Maudie Fraser,GL,FR-O,63.3,72,-95,95,-100,95,55,-57.5,57.5,57.5,110,117.5,-120,117.5,270,F,SBD,18,Raw,
Emma Taylor #1,YNE,FR-M1,70.7,72,-115,120,130,130,65,-67.5,67.5,67.5,160,170,-175,170,367.5,F,SBD,1,Raw,1977-02-08
Nicola Gregan,SE,FR-M1,71.3,72,-110,110,117.5,117.5,70,-72.5,-72.5,70,125,132.5,-140,132.5,320,F,SBD,2,Raw,
Ajanta Hilton,EM,FR-M1,71,72,110,-117.5,120,120,57.5,60,-62.5,60,127.5,132.5,-140,132.5,312.5,F,SBD,3,Raw,
Nicola Harding,EM,FR-M1,71.1,72,110,117.5,-120,117.5,57.5,60,65,65,120,125,-130,125,307.5,F,SBD,4,Raw,
Paula Gentle,EM,FR-M1,66.7,72,105,110,-115,110,52.5,55,-57.5,55,130,140,-145,140,305,F,SBD,5,Raw,
Bev Carder,SM,FR-M1,70.5,72,90,97.5,102.5,102.5,50,55,-60,55,115,122.5,125,125,282.5,F,SBD,6,Raw,
Rita Shergold,SM,FR-M2,68.2,72,95,-105,105,105,65,70,-72.5,70,100,110,120,120,295,F,SBD,1,Raw,
Caroline Calver,EM,FR-M3,71,72,85,92.5,-97.5,92.5,42.5,47.5,-50,47.5,115,120,125,125,265,F,SBD,1,Raw,
Ana Rojo-Echeburua,SE,F-O,68.8,72,-145,145,152.5,152.5,77.5,82.5,87.5,87.5,150,160,165,165,405,F,SBD,1,Single-ply,
Drew Fackrell,SW,FR-Jr,82.8,84,147.5,155,160,160,72.5,77.5,-80,77.5,155,-165,-165,155,392.5,F,SBD,1,Raw,
Olivia Bullis,SE,FR-Jr,80.5,84,110,117.5,125,125,62.5,67.5,70,70,160,170,175,175,370,F,SBD,2,Raw,
Diana Eleuterio,GL,FR-Jr,81.8,84,130,135,-140,135,65,-67.5,-67.5,65,142.5,152.5,160,160,360,F,SBD,3,Raw,
Nicola Stimpson,SM,FR-O,83.5,84,162.5,175,180,180,65,75,80,80,160,170,175,175,435,F,SBD,1,Raw,
Sarah Corbett,YNE,FR-O,74.8,84,130,-137.5,137.5,137.5,70,-75,-75,70,165,-175,-175,165,372.5,F,SBD,2,Raw,
Susy Pyzer-Knapp,EM,FR-O,81.7,84,130,137.5,142.5,142.5,62.5,67.5,-70,67.5,160,-170,-170,160,370,F,SBD,3,Raw,
Mariam Mahmoud #2,GL,FR-O,80.3,84,120,130,132.5,132.5,-67.5,70,72.5,72.5,140,152.5,155,155,360,F,SBD,4,Raw,
Maria Papadelli,GL,FR-O,75.2,84,102.5,110,115,115,55,60,-62.5,60,127.5,135,142.5,142.5,317.5,F,SBD,5,Raw,
Matilda Curtis,GL,FR-O,81.6,84,-120,120,-127.5,120,52.5,55,-57.5,55,137.5,-147.5,-147.5,137.5,312.5,F,SBD,6,Raw,
Becky Hill,EM,FR-O,81.7,84,-115,115,120,120,-52.5,55,-57.5,55,125,130,135,135,310,F,SBD,7,Raw,
Lucy Hyde,SE,FR-M1,82,84,110,117.5,122.5,122.5,82.5,-87.5,-87.5,82.5,140,150,155,155,360,F,SBD,1,Raw,
Sarah Marsden,EM,FR-M1,82.9,84,-122.5,125,132.5,132.5,67.5,72.5,-77.5,72.5,130,142.5,-152.5,142.5,347.5,F,SBD,2,Raw,
Nicky Edgar,SE,FR-M1,84,84,112.5,117.5,120,120,55,-60,-60,55,117.5,122.5,127.5,127.5,302.5,F,SBD,3,Raw,
Georgina Hazell,EM,FR-M2,82.1,84,-110,-110,110,110,70,77.5,82.5,82.5,155,162.5,-167.5,162.5,355,F,SBD,1,Raw,
Christie Civetta,EM,F-O,83.1,84,185,197.5,205,205,120,125,130,130,175,187.5,192.5,192.5,527.5,F,SBD,1,Single-ply,
Abi Lane,SW,FR-Sj,115.7,84+,110,-120,120,120,62.5,-67.5,-67.5,62.5,145,157.5,,157.5,340,F,SBD,1,Raw,
Charlie Chester,SW,FR-Jr,111.6,84+,172.5,185,-202.5,185,97.5,105,107.5,107.5,177.5,192.5,,192.5,485,F,SBD,1,Raw,
Kate Sweatman,WM,FR-O,123.4,84+,170,182.5,190,190,85,92.5,-95,92.5,175,185,-190,185,467.5,F,SBD,1,Raw,
Scarlett Sotiris,SM,FR-O,94.4,84+,142.5,155,-162.5,155,75,-80,85,85,170,185,-200,185,425,F,SBD,2,Raw,
Kimberley Kirkham,EM,FR-O,107.7,84+,140,150,157.5,157.5,75,-80,-80,75,147.5,160,165,165,397.5,F,SBD,3,Raw,
Anca Bica,WM,FR-O,100.9,84+,142.5,-150,-155,142.5,-60,-67.5,67.5,67.5,155,165,175,175,385,F,SBD,4,Raw,
Kelly-Marie Edwards,SM,FR-O,143.4,84+,-135,-135,140,140,67.5,72.5,77.5,77.5,150,160,-170,160,377.5,F,SBD,5,Raw,1990-11-11
Christina Judge,YNE,FR-O,92.9,84+,105,110,115,115,45,47.5,50,50,125,135,-145,135,300,F,SBD,6,Raw,
Siobhan Taylor,EM,FR-M1,98.7,84+,140,147.5,-155,147.5,70,75,-80,75,155,165,177.5,177.5,400,F,SBD,1,Raw,
Kelly Phasey,WM,FR-M1,130.4,84+,140,152.5,-160,152.5,-90,92.5,-98,92.5,145,150,-157.5,150,395,F,SBD,2,Raw,
Meg Robertson,EM,FR-M1,93.6,84+,140,147.5,-152.5,147.5,-70,70,-75,70,160,170,-182.5,170,387.5,F,SBD,3,Raw,
Lisa Pilkington,NW,FR-M1,111.1,84+,110,-117.5,120,120,80,-90,-90,80,140,147.5,155,155,355,F,SBD,4,Raw,
Tricia Owen-Williams,WM,FR-M1,121.1,84+,105,115,-120,115,-52.5,57.5,60,60,140,152.5,160,160,335,F,SBD,5,Raw,1975-06-30
Amanda McGovern,NW,FR-M1,94.6,84+,-95,95,-107.5,95,60,65,-70,65,147.5,155,-160,155,315,F,SBD,6,Raw,
Jill Bowers,EM,FR-M2,87.3,84+,-85,85,-90,85,52.5,57.5,-62.5,57.5,90,100,110,110,252.5,F,SBD,1,Raw,1969-02-20
