Division,WeightClassKg,Place,Name,Team,BodyweightKg,Best3SquatKg,Best3BenchKg,Best3DeadliftKg,TotalKg,Equipment,Event,Sex,BirthDate
Boys,51.71,1,Anthony Castro,Gonzales,50.26,102.06,54.43,113.4,269.89,Single-ply,SBD,M,
Boys,51.71,2,Stevie Ray,Giddings,50.08,88.45,65.77,113.4,267.62,Single-ply,SBD,M,
Boys,51.71,3,David Hernandez,Smithville,51.71,97.52,47.63,115.67,260.82,Single-ply,SBD,M,
Boys,51.71,4,Noah Cooper,Elgin,45.99,68.04,49.9,92.99,210.92,Single-ply,SBD,M,
Boys,51.71,5,Elijah Romero,Smithville,49.08,77.11,38.56,83.91,199.58,Single-ply,SBD,M,
Boys,55.79,1,Dylan Deutsch,Bastrop Cedar Creek,54.79,133.81,92.99,149.69,376.48,Single-ply,SBD,M,
Boys,55.79,2,Giovanni Aguilar,Taylor,54.34,111.13,65.77,124.74,301.64,Single-ply,SBD,M,
Boys,55.79,3,Ty Darnell,Giddings,55.07,108.86,68.04,113.4,290.3,Single-ply,SBD,M,
Boys,55.79,4,Andrew Cortez,Taylor,54.79,102.06,52.16,129.27,283.5,Single-ply,SBD,M,
Boys,55.79,5,Cameron Morris,Smithville,55.79,104.33,56.7,117.93,278.96,Single-ply,SBD,M,
Boys,55.79,6,Mathew Pachicano,Taylor,54.25,83.91,56.7,111.13,251.74,Single-ply,SBD,M,
Boys,55.79,7,Zane Brenek,Schulenburg,55.79,72.57,52.16,102.06,226.8,Single-ply,SBD,M,
Boys,55.79,DQ,Fernando Aguilar,Manor New Tech,55.7,97.52,,,,Single-ply,SBD,M,
Boys,59.87,1,Nick Nyguen,Bastrop,58.42,167.83,90.72,183.7,442.25,Single-ply,SBD,M,
Boys,59.87,2,Christian Osario,Smithville,59.69,145.15,74.84,145.15,365.14,Single-ply,SBD,M,
Boys,59.87,3,Chris Wehr,Smithville,59.78,136.08,90.72,113.4,340.19,Single-ply,SBD,M,
Boys,59.87,4,Alex Jimenez #4,Schulenburg,59.42,108.86,68.04,136.08,312.98,Single-ply,SBD,M,
Boys,59.87,5,Chase Densmore,Elgin,58.6,79.38,63.5,104.33,247.21,Single-ply,SBD,M,
Boys,59.87,DQ,Barrett Brock,Schulenburg,59.33,,,,,Single-ply,SBD,M,
Boys,59.87,DQ,Aiden Beyer,Schulenburg,59.42,117.93,,,,Single-ply,SBD,M,
Boys,67.13,1,Jessiah Barr,Gonzales,65.05,192.78,122.47,192.78,508.02,Single-ply,SBD,M,
Boys,67.13,2,Jaxson Jaeger,Giddings,66.86,170.1,104.33,183.7,458.13,Single-ply,SBD,M,
Boys,67.13,3,Colby Solis,Taylor,66.59,165.56,99.79,174.63,439.98,Single-ply,SBD,M,
Boys,67.13,4,Gabe Driscoll,Del Valle,66.04,170.1,95.25,163.29,428.64,Single-ply,SBD,M,
Boys,67.13,5,Jacob Marshall,Giddings,66.86,156.49,113.4,156.49,426.38,Single-ply,SBD,M,
Boys,67.13,6,Josh Gil,Elgin,64.41,142.88,95.25,163.29,401.43,Single-ply,SBD,M,
Boys,67.13,7,Juan Mendez,Del Valle,64.5,151.95,95.25,151.95,399.16,Single-ply,SBD,M,
Boys,67.13,8,John Davis,Schulenburg,65.59,142.88,79.38,154.22,376.48,Single-ply,SBD,M,
Boys,67.13,9,Zachary Nolan,Liberty Hill,65.14,145.15,77.11,147.42,369.68,Single-ply,SBD,M,
Boys,67.13,10,Duncan Reilley Hamblen,Bastrop Cedar Creek,61.96,133.81,77.11,156.49,367.41,Single-ply,SBD,M,
Boys,67.13,11,Riley Hashaw,Smithville,66.68,142.88,72.57,151.95,367.41,Single-ply,SBD,M,
Boys,67.13,12,Damian Zapata,Liberty Hill,66.77,138.35,79.38,145.15,362.87,Single-ply,SBD,M,
Boys,67.13,13,Fernando Reyes,Brookshire Royal,66.22,120.2,83.91,142.88,347,Single-ply,SBD,M,
Boys,67.13,14,Kaleb Corona,Smithville,62.41,127.01,86.18,117.93,331.12,Single-ply,SBD,M,
Boys,67.13,15,Ky Sanford,Taylor,63.68,149.69,68.04,113.4,331.12,Single-ply,SBD,M,
Boys,67.13,16,Joseph Gonzales,Del Valle,62.41,115.67,70.31,124.74,310.71,Single-ply,SBD,M,
Boys,67.13,17,Bryan Pauley,Bastrop,62.6,111.13,79.38,117.93,308.44,Single-ply,SBD,M,
Boys,67.13,18,Roberto Aguilar,Del Valle,64.95,92.99,77.11,124.74,294.84,Single-ply,SBD,M,
Boys,74.84,1,Cesar Matamoros,Gonzales,72.85,226.8,113.4,219.99,560.19,Single-ply,SBD,M,
Boys,74.84,2,Will Eckford,Liberty Hill,70.67,206.38,136.08,195.04,537.51,Single-ply,SBD,M,
Boys,74.84,3,Trent Mendez,Schulenburg,71.49,197.31,136.08,204.12,537.51,Single-ply,SBD,M,
Boys,74.84,4,Chase Rhodes,Austin Westlake,73.3,188.24,115.67,224.53,528.44,Single-ply,SBD,M,
Boys,74.84,5,Melanio Perez,Elgin,74.3,192.78,117.93,197.31,508.02,Single-ply,SBD,M,
Boys,74.84,6,Diego Mathias Salinas,Bastrop Cedar Creek,74.12,204.12,102.06,181.44,487.61,Single-ply,SBD,M,
Boys,74.84,7,Chance Postell,Elgin,71.67,158.76,120.2,199.58,478.54,Single-ply,SBD,M,
Boys,74.84,8,Kaden Deleon,Gonzales,71.76,156.49,122.47,174.63,453.59,Single-ply,SBD,M,
Boys,74.84,9,Jorge Olvera,Schulenburg,68.22,156.49,97.52,197.31,451.32,Single-ply,SBD,M,
Boys,74.84,10,Ben Carter,Liberty Hill,70.58,170.1,117.93,158.76,446.79,Single-ply,SBD,M,
Boys,74.84,11,Miguel Ramos,Gonzales,71.94,156.49,108.86,176.9,442.25,Single-ply,SBD,M,
Boys,74.84,12,Jacob Morris,Liberty Hill,72.76,156.49,97.52,188.24,442.25,Single-ply,SBD,M,
Boys,74.84,13,Adrian Sepulveda,Smithville,73.94,176.9,113.4,142.88,433.18,Single-ply,SBD,M,
Boys,74.84,14,Nikko Vasquez,Liberty Hill,74.75,161.03,104.33,165.56,430.91,Single-ply,SBD,M,
Boys,74.84,15,Jacob Vacek,Schulenburg,71.49,142.88,88.45,190.51,421.84,Single-ply,SBD,M,
Boys,74.84,16,Bryce Stoever,Schulenburg,72.76,147.42,86.18,183.7,417.3,Single-ply,SBD,M,
Boys,74.84,17,Jordan Lauritzen,Bastrop,69.04,124.74,106.59,158.76,390.09,Single-ply,SBD,M,
Boys,74.84,18,Devin Bradley,Schulenburg,73.57,145.15,72.57,156.49,374.21,Single-ply,SBD,M,
Boys,74.84,19,Frey Briones,Bastrop,72.67,142.88,79.38,147.42,369.68,Single-ply,SBD,M,
Boys,74.84,20,Paden Maass,Elgin,68.31,127.01,74.84,147.42,349.27,Single-ply,SBD,M,
Boys,74.84,21,Samuel Isaac,Smithville,70.31,113.4,90.72,127.01,331.12,Single-ply,SBD,M,
Boys,74.84,22,Enrique Olan,Del Valle,68.58,111.13,72.57,113.4,297.1,Single-ply,SBD,M,
Boys,74.84,23,Cohen Odell,Taylor,68.04,104.33,54.43,111.13,269.89,Single-ply,SBD,M,
Boys,74.84,DQ,Arthur Vasquez,Brookshire Royal,67.86,,,,,Single-ply,SBD,M,
Boys,74.84,DQ,Devin Richards,Brookshire Royal,70.31,,,,,Single-ply,SBD,M,
Boys,74.84,DQ,Ethan Christopher Meyers,Bastrop Cedar Creek,73.84,,,,,Single-ply,SBD,M,
Boys,74.84,DQ,Nate Gonzales,Lockhart,69.31,,,,,Single-ply,SBD,M,
Boys,82.1,1,Hector Granados,Giddings,80.74,226.8,151.95,217.72,596.47,Single-ply,SBD,M,
Boys,82.1,2,Dustin Armstrong,Smithville,81.74,199.58,124.74,215.46,539.77,Single-ply,SBD,M,
Boys,82.1,3,Orlando Adame,Schulenburg,80.2,197.31,102.06,210.92,510.29,Single-ply,SBD,M,
Boys,82.1,4,Damian Labron,Giddings,77.56,174.63,102.06,188.24,464.93,Single-ply,SBD,M,
Boys,82.1,5,Troy Osborne,Elgin,78.11,170.1,122.47,172.37,464.93,Single-ply,SBD,M,
Boys,82.1,6,Emanuel Uziel Banegas Zamora,Bastrop Cedar Creek,81.01,183.7,111.13,165.56,460.4,Single-ply,SBD,M,
Boys,82.1,7,Joshua Langwell,Liberty Hill,80.29,176.9,95.25,161.03,433.18,Single-ply,SBD,M,
Boys,82.1,8,Cole Smith,Liberty Hill,75.48,161.03,86.18,163.29,410.5,Single-ply,SBD,M,
Boys,82.1,9,Avery Bourgeois,Liberty Hill,77.75,165.56,92.99,151.95,410.5,Single-ply,SBD,M,
Boys,82.1,10,Zachary Lorenzo Gomez,Bastrop Cedar Creek,79.2,142.88,111.13,154.22,408.23,Single-ply,SBD,M,
Boys,82.1,11,Kenelle Hodges,Del Valle,80.83,127.01,97.52,154.22,378.75,Single-ply,SBD,M,
Boys,82.1,12,Nathen Basche,Taylor,77.56,136.08,92.99,145.15,374.21,Single-ply,SBD,M,
Boys,82.1,13,Tre Valerga,Taylor,78.29,142.88,81.65,142.88,367.41,Single-ply,SBD,M,
Boys,82.1,14,Adam Thompson,Schulenburg,75.84,136.08,68.04,129.27,333.39,Single-ply,SBD,M,
Boys,82.1,15,Stihl Gartman,Smithville,76.2,102.06,65.77,86.18,254.01,Single-ply,SBD,M,
Boys,82.1,DQ,Gabriel Gutierrez,Lockhart,81.19,145.15,106.59,,,Single-ply,SBD,M,
Boys,89.81,1,Clayton Sherman,Bastrop,89.45,224.53,136.08,226.8,587.4,Single-ply,SBD,M,
Boys,89.81,2,Jaydon Sawyer,Elgin,88.36,170.1,102.06,235.87,508.02,Single-ply,SBD,M,
Boys,89.81,3,Keeton Patrick McFarland,Bastrop Cedar Creek,89.81,199.58,108.86,188.24,496.68,Single-ply,SBD,M,
Boys,89.81,4,Blake Wright,Gonzales,83.1,210.92,115.67,165.56,492.15,Single-ply,SBD,M,
Boys,89.81,5,Trent Holcomb,Lockhart,86.82,156.49,102.06,188.24,446.79,Single-ply,SBD,M,
Boys,89.81,6,John Alba,Manor New Tech,86.09,136.08,97.52,210.92,444.52,Single-ply,SBD,M,
Boys,89.81,7,Diego Sosa,Lockhart,87.72,149.69,102.06,149.69,401.43,Single-ply,SBD,M,
Boys,89.81,DQ,Reid Bynum,Liberty Hill,84.91,,,,,Single-ply,SBD,M,
Boys,89.81,DQ,Connor Burleson,Smithville,88.27,,,,,Single-ply,SBD,M,
Boys,89.81,DQ,Anthony Villanueva,Brookshire Royal,82.19,,,,,Single-ply,SBD,M,
Boys,99.79,1,Easton Kylberg,Giddings,98.97,260.82,181.44,256.28,698.53,Single-ply,SBD,M,
Boys,99.79,2,Christian Lopez,Bastrop,90.9,226.8,154.22,244.94,625.96,Single-ply,SBD,M,
Boys,99.79,3,Layne Thiele,Gonzales,98.7,238.14,145.15,238.14,621.42,Single-ply,SBD,M,
Boys,99.79,4,Caden Stockdale,Smithville,96.16,204.12,136.08,235.87,576.06,Single-ply,SBD,M,
Boys,99.79,5,Josh Ramirez,Schulenburg,93.35,208.65,129.27,215.46,553.38,Single-ply,SBD,M,
Boys,99.79,6,Billy Tischler,Bastrop,98.25,215.46,124.74,208.65,548.85,Single-ply,SBD,M,
Boys,99.79,7,Hayden Lopez,Gonzales,98.07,213.19,117.93,165.56,496.68,Single-ply,SBD,M,
Boys,99.79,8,Rafael Rodriguez,Gonzales,90.99,199.58,106.59,188.24,494.42,Single-ply,SBD,M,
Boys,99.79,9,Esau Ramirez,Del Valle,95.35,129.27,108.86,145.15,383.29,Single-ply,SBD,M,
Boys,99.79,10,Richard Valdez,Smithville,97.98,147.42,74.84,161.03,383.29,Single-ply,SBD,M,
Boys,99.79,11,Andre Solis,Taylor,92.62,92.99,124.74,149.69,367.41,Single-ply,SBD,M,
Boys,99.79,12,Casey Wood,Lockhart,91.44,106.59,65.77,122.47,294.84,Single-ply,SBD,M,
Boys,99.79,DQ,Zachary Hand,Brookshire Royal,95.8,,,,,Single-ply,SBD,M,
Boys,109.77,1,Abdias Castillo,Elgin,100.79,306.17,181.44,249.48,737.09,Single-ply,SBD,M,
Boys,109.77,2,Hector Arredondo-Obesco,Bastrop Cedar Creek,109.04,226.8,136.08,235.87,598.74,Single-ply,SBD,M,
Boys,109.77,3,Joshua Mitschke,Giddings,100.88,256.28,124.74,215.46,596.47,Single-ply,SBD,M,
Boys,109.77,4,Kevin Love,Elgin,101.24,208.65,149.69,233.6,591.94,Single-ply,SBD,M,
Boys,109.77,5,Julius Osborne,Liberty Hill,108.32,204.12,129.27,197.31,530.7,Single-ply,SBD,M,
Boys,109.77,6,Jaycob Raz,Giddings,103.42,204.12,122.47,201.85,528.44,Single-ply,SBD,M,
Boys,109.77,7,Landon Holub,Gonzales,108.05,204.12,149.69,158.76,512.56,Single-ply,SBD,M,
Boys,109.77,8,Jose Galan,Giddings,104.24,192.78,115.67,188.24,496.68,Single-ply,SBD,M,
Boys,109.77,9,Daniel Andres Franco,Bastrop Cedar Creek,108.23,167.83,102.06,201.85,471.74,Single-ply,SBD,M,
Boys,109.77,10,Ricardo Diaz,Lockhart,107.68,181.44,90.72,197.31,469.47,Single-ply,SBD,M,
Boys,109.77,11,Chris Borja,Smithville,102.06,158.76,106.59,158.76,424.11,Single-ply,SBD,M,
Boys,109.77,12,Marshall Wellborn,Schulenburg,107.32,149.69,92.99,170.1,412.77,Single-ply,SBD,M,
Boys,109.77,13,Kevin Veliz,Gonzales,104.05,115.67,79.38,124.74,319.78,Single-ply,SBD,M,
Boys,109.77,14,Michael Cernuch,Smithville,109.5,90.72,79.38,124.74,294.84,Single-ply,SBD,M,
Boys,109.77,DQ,Eric Comancho,Taylor,103.24,158.76,90.72,,,Single-ply,SBD,M,
Boys,124.74,1,Alexander Handy,Bastrop Cedar Creek,123.38,276.69,140.61,263.08,680.39,Single-ply,SBD,M,
Boys,124.74,2,Carson Klaerner,Bastrop,113.94,226.8,163.29,215.46,605.55,Single-ply,SBD,M,
Boys,124.74,3,Michael Lara,Giddings,115.48,195.04,127.01,190.51,512.56,Single-ply,SBD,M,
Boys,124.74,4,Juan Barrueta,Del Valle,116.66,192.78,122.47,183.7,498.95,Single-ply,SBD,M,
Boys,124.74,5,Alex Richardson,Lockhart,116.3,176.9,108.86,167.83,453.59,Single-ply,SBD,M,
Boys,124.74,6,Blaine Mueller,Elgin,111.4,170.1,92.99,167.83,430.91,Single-ply,SBD,M,
Boys,124.74,7,Angel Martinez #14,Del Valle,120.11,145.15,113.4,165.56,424.11,Single-ply,SBD,M,
Boys,124.74,8,Diego Villuerual,Taylor,120.29,156.49,113.4,151.95,421.84,Single-ply,SBD,M,
Boys,124.74,9,James Oviedo,Brookshire Royal,118.02,129.27,88.45,188.24,405.97,Single-ply,SBD,M,
Boys,124.74,10,Christian Martinez,Del Valle,112.94,142.88,77.11,142.88,362.87,Single-ply,SBD,M,
Boys,124.74,11,Elijah Herrera,Manor New Tech,117.3,124.74,70.31,158.76,353.8,Single-ply,SBD,M,
Boys,124.74,12,Daniel Enrique Espinal Argueta,Bastrop Cedar Creek,119.11,68.04,65.77,122.47,256.28,Single-ply,SBD,M,
Boys,139.71,1,Jusiah Sampleton,Giddings,138.8,351.53,210.92,258.55,821,Single-ply,SBD,M,
Boys,139.71,2,Jackson Harrison,Liberty Hill,128.91,285.76,151.95,238.14,675.85,Single-ply,SBD,M,
Boys,139.71,3,Kevin Ramirez,Giddings,134.17,204.12,133.81,185.97,523.9,Single-ply,SBD,M,
Boys,139.71,4,Hunter Gibson,Elgin,125.1,204.12,127.01,181.44,512.56,Single-ply,SBD,M,
Boys,139.71,5,Ignacio Hernandez,Schulenburg,138.8,197.31,113.4,197.31,508.02,Single-ply,SBD,M,
Boys,139.71,6,Isaiah Adams,Schulenburg,125.37,188.24,115.67,199.58,503.49,Single-ply,SBD,M,
Boys,139.71,7,Omar Borjon,Gonzales,129.55,192.78,138.35,167.83,498.95,Single-ply,SBD,M,
Boys,139.71,8,Calvin Thompson,Schulenburg,135.81,142.88,92.99,154.22,390.09,Single-ply,SBD,M,
Boys,139.71+,1,Cooper Lovelace,Bastrop,148.78,215.46,158.76,210.92,585.13,Single-ply,SBD,M,
Boys,139.71+,2,Dylan Braswell,Bastrop,163.93,149.69,104.33,170.1,424.11,Single-ply,SBD,M,
Boys,139.71+,3,Robert Phifer,Del Valle,146.06,142.88,81.65,195.04,419.57,Single-ply,SBD,M,
Boys,139.71+,DQ,Brayden Bittick,Smithville,142.88,272.16,129.27,,,Single-ply,SBD,M,
Boys,,NS,Jeff Philpott,Liberty Hill,,,,,,Single-ply,SBD,M,
Boys,,NS,Drake Torno,Liberty Hill,,,,,,Single-ply,SBD,M,
Boys,,NS,Rogeric Walton,Schulenburg,,,,,,Single-ply,SBD,M,
Boys,,NS,Sean McKinney,Lockhart,,,,,,Single-ply,SBD,M,
Boys,,NS,Jonathan Creel,Lockhart,,,,,,Single-ply,SBD,M,
Boys,,NS,Edward Mendoza,Lockhart,,,,,,Single-ply,SBD,M,
Boys,,NS,Jaxon Taylor,Del Valle,,,,,,Single-ply,SBD,M,
Boys,,NS,Ryker Lawhon,Bastrop,,,,,,Single-ply,SBD,M,
Boys,,NS,Rand Barger,Bastrop,,,,,,Single-ply,SBD,M,
Boys,,NS,Jesus Arciga,Brookshire Royal,,,,,,Single-ply,SBD,M,
Boys,,NS,Luis Antonio Tovar,Bastrop Cedar Creek,,,,,,Single-ply,SBD,M,
Boys,,NS,Erick Robledo,Brookshire Royal,,,,,,Single-ply,SBD,M,
Boys,,NS,Gilberto Perez,Brookshire Royal,,,,,,Single-ply,SBD,M,
Boys,,NS,Gustavo Infante,Brookshire Royal,,,,,,Single-ply,SBD,M,
Boys,,NS,Joseph Garcia,Brookshire Royal,,,,,,Single-ply,SBD,M,
