Division,WeightClassKg,Place,Name,Team,BodyweightKg,Best3SquatKg,Best3BenchKg,Best3DeadliftKg,TotalKg,Equipment,Event,Sex,BirthDate
Boys,51.71,1,Ja-Kelon Tutt,Garrison,49.35,113.4,72.57,115.67,301.64,Single-ply,SBD,M,
Boys,51.71,2,Landon Caudle,Maud,51.17,106.59,63.5,117.93,288.03,Single-ply,SBD,M,
Boys,51.71,3,Logan Maddox,Dawson,43.82,95.25,49.9,92.99,238.14,Single-ply,SBD,M,
Boys,51.71,DQ,Ben Winkel,Cayuga,49.62,65.77,,,,Single-ply,SBD,M,
Boys,55.79,1,Jagger Allen,Garrison,55.34,163.29,115.67,163.29,442.25,Single-ply,SBD,M,
Boys,55.79,2,Isaiah Hardison,Joaquin,55.61,142.88,72.57,154.22,369.68,Single-ply,SBD,M,
Boys,55.79,3,Isaiah O'Neal,Gladewater Union Grove,55.61,140.61,77.11,147.42,365.14,Single-ply,SBD,M,
Boys,55.79,4,Dreightan Patt,Honey Grove,54.16,149.69,61.23,147.42,358.34,Single-ply,SBD,M,
Boys,55.79,5,Charlie Sawyer,Frankston,55.79,136.08,83.91,129.27,349.27,Single-ply,SBD,M,
Boys,55.79,6,Lane Turner,Gladewater Union Grove,55.43,136.08,77.11,127.01,340.19,Single-ply,SBD,M,
Boys,55.79,7,Nick Michka,Celeste,54.61,124.74,77.11,129.27,331.12,Single-ply,SBD,M,
Boys,55.79,8,Cannon Smith,San Augustine,53.16,95.25,70.31,120.2,285.76,Single-ply,SBD,M,
Boys,55.79,DQ,Damien Wooldridge,Italy,55.25,117.93,,,,Single-ply,SBD,M,
Boys,55.79,DQ,Dillin Exum,Detroit,54.16,,,,,Single-ply,SBD,M,
Boys,59.87,1,Micah McCall,Dawson,58.42,151.95,92.99,179.17,424.11,Single-ply,SBD,M,
Boys,59.87,2,Devin Espinoza,Gilmer Union Hill,58.51,156.49,95.25,172.37,424.11,Single-ply,SBD,M,
Boys,59.87,3,Michael Lane,Linden-Kildare,58.69,172.37,79.38,165.56,417.3,Single-ply,SBD,M,
Boys,59.87,4,John Paul Johnsen,Garrison,56.25,120.2,83.91,149.69,353.8,Single-ply,SBD,M,
Boys,59.87,5,Cannon Miller,Wolfe City,58.6,142.88,79.38,131.54,353.8,Single-ply,SBD,M,
Boys,59.87,6,Carson Herron,Wolfe City,59.6,133.81,81.65,111.13,326.59,Single-ply,SBD,M,
Boys,59.87,7,Chandler Henslee,Celeste,59.78,115.67,72.57,133.81,322.05,Single-ply,SBD,M,
Boys,59.87,8,Tristan Himes,Malakoff Cross Roads,56.61,117.93,74.84,124.74,317.51,Single-ply,SBD,M,
Boys,59.87,9,Jackson Almand,Celeste,57.7,111.13,65.77,133.81,310.71,Single-ply,SBD,M,
Boys,59.87,10,Steven Turbyfill,Malakoff Cross Roads,57.88,104.33,65.77,140.61,310.71,Single-ply,SBD,M,
Boys,59.87,11,Corey Holcomb,Pineland West Sabine,59.42,90.72,61.23,142.88,294.84,Single-ply,SBD,M,
Boys,67.13,1,Erick Orduna,Celeste,66.68,195.04,120.2,181.44,496.68,Single-ply,SBD,M,
Boys,67.13,2,Cloedus Scales,Detroit,67.04,190.51,117.93,183.7,492.15,Single-ply,SBD,M,
Boys,67.13,3,Jerret Stone,Celeste,66.41,188.24,122.47,170.1,480.81,Single-ply,SBD,M,
Boys,67.13,4,Cole Heard,Beckville,65.32,181.44,104.33,188.24,474,Single-ply,SBD,M,
Boys,67.13,5,Maxwell Gipson,Garrison,65.95,156.49,83.91,208.65,449.06,Single-ply,SBD,M,
Boys,67.13,6,Leo Cornejo,Gilmer Union Hill,66.32,151.95,115.67,176.9,444.52,Single-ply,SBD,M,
Boys,67.13,7,Sam Lewis,Hawkins,65.77,151.95,113.4,165.56,430.91,Single-ply,SBD,M,
Boys,67.13,8,Kameron Striegel,Pineland West Sabine,63.23,165.56,83.91,172.37,421.84,Single-ply,SBD,M,
Boys,67.13,9,James Evans,Gladewater Union Grove,66.32,154.22,97.52,156.49,408.23,Single-ply,SBD,M,
Boys,67.13,10,Carter Smith,Gladewater Union Grove,67.13,151.95,102.06,154.22,408.23,Single-ply,SBD,M,
Boys,74.84,1,Jayke Bass,Gilmer Union Hill,74.39,206.38,151.95,215.46,573.79,Single-ply,SBD,M,
Boys,74.84,2,Tanner Meeks,Celeste,74.3,217.72,138.35,215.46,571.53,Single-ply,SBD,M,
Boys,74.84,3,Trayson Wright,Overton,73.94,215.46,129.27,215.46,560.19,Single-ply,SBD,M,
Boys,74.84,4,Claude Scales,Detroit,73.94,210.92,117.93,208.65,537.51,Single-ply,SBD,M,
Boys,74.84,5,Carlos Garrett,Shelbyville,72.21,183.7,131.54,217.72,532.97,Single-ply,SBD,M,
Boys,74.84,6,Tristian Lee,Maud,73.12,158.76,115.67,204.12,478.54,Single-ply,SBD,M,
Boys,74.84,7,Blaine Farmer,Detroit,72.57,181.44,86.18,204.12,471.74,Single-ply,SBD,M,
Boys,74.84,8,Ethan Evans,Simms Bowie,73.21,167.83,117.93,181.44,467.2,Single-ply,SBD,M,
Boys,74.84,9,Dallon Jordan,Joaquin,71.94,154.22,97.52,174.63,426.38,Single-ply,SBD,M,
Boys,74.84,DQ,DeMarcus Jackson,Dawson,68.58,,,,,Single-ply,SBD,M,
Boys,74.84,DQ,Seth Barker,Cayuga,72.85,,,,,Single-ply,SBD,M,
Boys,82.1,1,Hunter Boatright,Dawson,81.74,224.53,117.93,219.99,562.45,Single-ply,SBD,M,
Boys,82.1,2,Davy Branscom,Gladewater Union Grove,80.2,238.14,117.93,195.04,551.11,Single-ply,SBD,M,
Boys,82.1,3,Corey Caldwell,Cayuga,79.38,199.58,120.2,190.51,510.29,Single-ply,SBD,M,
Boys,82.1,4,Jesse Saldana,Wortham,81.37,197.31,117.93,192.78,508.02,Single-ply,SBD,M,
Boys,82.1,5,Jonathon Peery,Laird Hill Leveretts Chapel,77.38,181.44,124.74,195.04,501.22,Single-ply,SBD,M,
Boys,82.1,6,Jesus Luna,Italy,75.93,163.29,99.79,174.63,437.72,Single-ply,SBD,M,
Boys,82.1,7,Braydon Hart,Malakoff Cross Roads,79.83,165.56,97.52,170.1,433.18,Single-ply,SBD,M,
Boys,82.1,DQ,Hayden Palmer,Kerens,80.47,210.92,,,,Single-ply,SBD,M,
Boys,82.1,DQ,Brayden May,Kerens,75.21,208.65,158.76,,,Single-ply,SBD,M,
Boys,82.1,DQ,Vinny Miller,Gladewater Union Grove,77.11,,,,,Single-ply,SBD,M,
Boys,82.1,DQ,Macen Clark,Gilmer Union Hill,82.1,195.04,140.61,,,Single-ply,SBD,M,
Boys,89.81,1,Jolon Garner,San Augustine,85.73,229.06,136.08,226.8,591.94,Single-ply,SBD,M,
Boys,89.81,2,Andre Brown,Joaquin,86.36,229.06,127.01,217.72,573.79,Single-ply,SBD,M,
Boys,89.81,3,Blaine Bourque,Pineland West Sabine,84.19,210.92,129.27,199.58,539.77,Single-ply,SBD,M,
Boys,89.81,4,Nolan Blackmon,Celeste,83.73,190.51,131.54,208.65,530.7,Single-ply,SBD,M,
Boys,89.81,5,Dorean Jordan,Kerens,85.91,206.38,104.33,213.19,523.9,Single-ply,SBD,M,
Boys,89.81,6,Wyatt Noack,Celeste,88.63,179.17,106.59,210.92,496.68,Single-ply,SBD,M,
Boys,89.81,7,Adam Lindgren,Garrison,83.55,183.7,117.93,183.7,485.34,Single-ply,SBD,M,
Boys,89.81,8,Javien Black,Garrison,85,190.51,95.25,199.58,485.34,Single-ply,SBD,M,
Boys,89.81,9,James Rissmiller,Wortham,88.54,174.63,120.2,190.51,485.34,Single-ply,SBD,M,
Boys,89.81,DQ,Shiloh Peckham,Cayuga,82.64,,,,,Single-ply,SBD,M,
Boys,99.79,1,Isaac Traxler,Garrison,95.71,217.72,151.95,267.62,637.3,Single-ply,SBD,M,
Boys,99.79,2,Kaimana Nakoa,Italy,96.07,219.99,172.37,240.4,632.76,Single-ply,SBD,M,
Boys,99.79,3,Bradley Parsons,Detroit,95.8,258.55,151.95,217.72,628.23,Single-ply,SBD,M,
Boys,99.79,4,Coleman Tapia,Hawkins,97.89,201.85,161.03,199.58,562.45,Single-ply,SBD,M,
Boys,99.79,5,Tyler Rodgers,Gladewater Union Grove,96.89,215.46,136.08,195.04,546.58,Single-ply,SBD,M,
Boys,99.79,6,Antonio Rodriguez,Kerens,94.89,204.12,142.88,197.31,544.31,Single-ply,SBD,M,
Boys,99.79,7,Nahum Rivera,Joaquin,91.81,208.65,133.81,195.04,537.51,Single-ply,SBD,M,
Boys,99.79,8,Dylan Braley,Simms Bowie,95.16,192.78,120.2,188.24,501.22,Single-ply,SBD,M,
Boys,99.79,9,Kolten Goolsby,Cayuga,91.17,208.65,97.52,183.7,489.88,Single-ply,SBD,M,
Boys,99.79,10,Aiden Giles,Celeste,98.16,174.63,131.54,183.7,489.88,Single-ply,SBD,M,
Boys,99.79,DQ,Johnathan Olguin,Clarksville,93.08,,,,,Single-ply,SBD,M,
Boys,109.77,1,Omar DeLaHoya,Italy,104.96,219.99,149.69,222.26,591.94,Single-ply,SBD,M,
Boys,109.77,2,Max Figueroa,Wolfe City,102.51,210.92,142.88,235.87,589.67,Single-ply,SBD,M,
Boys,109.77,3,Andrew Parker,Garrison,101.33,219.99,145.15,222.26,587.4,Single-ply,SBD,M,
Boys,109.77,4,Alec Vickers,Laird Hill Leveretts Chapel,106.23,215.46,138.35,210.92,564.72,Single-ply,SBD,M,
Boys,109.77,5,Edvin Smith,San Augustine,109.5,199.58,136.08,226.8,562.45,Single-ply,SBD,M,
Boys,109.77,6,Gavin Pollard,Garrison,102.6,210.92,147.42,195.04,553.38,Single-ply,SBD,M,
Boys,109.77,7,Briley Rogers,Pineland West Sabine,109.68,219.99,113.4,208.65,542.04,Single-ply,SBD,M,
Boys,109.77,8,Julian Olivares,Celeste,107.23,192.78,149.69,197.31,539.77,Single-ply,SBD,M,
Boys,109.77,9,Ezayl Tovar,Wolfe City,101.79,206.38,124.74,192.78,523.9,Single-ply,SBD,M,
Boys,109.77,10,Jeremiah Gutierrez,Italy,102.78,215.46,136.08,170.1,521.63,Single-ply,SBD,M,
Boys,109.77,11,Patrick Crabtree,Kerens,100.33,199.58,136.08,183.7,519.36,Single-ply,SBD,M,
Boys,109.77,12,Reed Cooper,Gladewater Union Grove,100.15,195.04,113.4,195.04,503.49,Single-ply,SBD,M,
Boys,124.74,1,De'Braylon McDonald,Overton,120.93,249.48,142.88,249.48,641.83,Single-ply,SBD,M,
Boys,124.74,2,Brandon Obenoskey,Simms Bowie,112.13,231.33,142.88,226.8,601.01,Single-ply,SBD,M,
Boys,124.74,3,Alex Oxford,Frankston,124.47,249.48,145.15,206.38,601.01,Single-ply,SBD,M,
Boys,124.74,4,Michael Wren,Dawson,120.56,231.33,117.93,204.12,553.38,Single-ply,SBD,M,
Boys,124.74,5,Parker Perry,Garrison,124.38,185.97,124.74,208.65,519.36,Single-ply,SBD,M,
Boys,124.74,6,KeAaron Jackson,Detroit,120.02,197.31,120.2,197.31,514.83,Single-ply,SBD,M,
Boys,124.74,7,Leland Jenkins,San Augustine,113.94,181.44,124.74,192.78,498.95,Single-ply,SBD,M,
Boys,124.74,8,Evan Sensat,Pineland West Sabine,120.38,185.97,97.52,206.38,489.88,Single-ply,SBD,M,
Boys,124.74,9,Joel Rodriguez,Cayuga,119.02,163.29,97.52,149.69,410.5,Single-ply,SBD,M,
Boys,124.74,DQ,Chris Andrade,Overton,119.39,,,,,Single-ply,SBD,M,
Boys,124.74,DQ,Payton Pearson,Chireno,124.28,147.42,106.59,,,Single-ply,SBD,M,
Boys,124.74,DQ,Tate Banker,Honey Grove,110.13,156.49,90.72,,,Single-ply,SBD,M,
Boys,139.71,1,John Hester,Hawkins,127.55,231.33,185.97,242.67,659.98,Single-ply,SBD,M,
Boys,139.71,2,Bryce Ballard,Italy,125.28,267.62,167.83,204.12,639.57,Single-ply,SBD,M,
Boys,139.71,3,Trevor Marquez,Malakoff Cross Roads,133.9,249.48,161.03,219.99,630.49,Single-ply,SBD,M,
Boys,139.71,4,Magnum Fitzgerald,Garrison,137.98,274.42,138.35,213.19,625.96,Single-ply,SBD,M,
Boys,139.71,5,Kadarius Roberson,Hawkins,130,226.8,142.88,208.65,578.33,Single-ply,SBD,M,
Boys,139.71,6,Jacob Ingram,Cayuga,133.36,197.31,124.74,213.19,535.24,Single-ply,SBD,M,
Boys,139.71,7,Briley Barron,Maud,127.91,192.78,129.27,201.85,523.9,Single-ply,SBD,M,
Boys,139.71,8,Ethan Davis,Joaquin,131.09,183.7,142.88,183.7,510.29,Single-ply,SBD,M,
Boys,139.71,9,Cash Ottwell,Celeste,131.9,174.63,138.35,190.51,503.49,Single-ply,SBD,M,
Boys,139.71,10,Jabrahlyn Jones,Garrison,125.1,188.24,102.06,210.92,501.22,Single-ply,SBD,M,
Boys,139.71,11,Austin Allen,Simms Bowie,128.19,190.51,120.2,188.24,498.95,Single-ply,SBD,M,
Boys,139.71,12,Stephen Long,Frankston,128,158.76,104.33,172.37,435.45,Single-ply,SBD,M,
Boys,139.71+,1,Trey Cartwright,Shelbyville,154.13,272.16,154.22,244.94,671.32,Single-ply,SBD,M,
Boys,139.71+,2,Jasper Shaw,Garrison,173.09,265.35,165.56,235.87,666.78,Single-ply,SBD,M,
Boys,139.71+,3,Kadden Williams,Overton,169.28,272.16,170.1,215.46,657.71,Single-ply,SBD,M,
Boys,139.71+,4,Jason Bush,San Augustine,147.15,210.92,161.03,226.8,598.74,Single-ply,SBD,M,
Boys,139.71+,5,Rhett Tucker,Simms Bowie,150.59,231.33,138.35,219.99,589.67,Single-ply,SBD,M,
Boys,139.71+,6,Jabrodrick Polk,Garrison,143.79,206.38,140.61,210.92,557.92,Single-ply,SBD,M,
Boys,139.71+,7,Cason Curbow,Garrison,146.42,197.31,151.95,192.78,542.04,Single-ply,SBD,M,
Boys,139.71+,8,Juan Garcia,Frankston,155.22,195.04,97.52,192.78,485.34,Single-ply,SBD,M,
Boys,139.71+,9,Rylie Culpepper,Maud,140.16,163.29,95.25,181.44,439.98,Single-ply,SBD,M,
Boys,139.71+,10,Cody Hoisington,Cayuga,166.01,167.83,65.77,149.69,383.29,Single-ply,SBD,M,
Boys,139.71+,DQ,Johnny Morales,Cayuga,143.52,,,,,Single-ply,SBD,M,
Boys,139.71+,DQ,D'Angelo Vazquez,Malakoff Cross Roads,147.42,,,,,Single-ply,SBD,M,
