Division,WeightClassKg,Place,Name,Team,BodyweightKg,Best3SquatKg,Best3BenchKg,Best3DeadliftKg,TotalKg,Equipment,Event,Sex,BirthDate
Boys,51.71,1,Talon Cavazos,Big Spring,50.71,122.47,72.57,145.15,340.19,Single-ply,SBD,M,
Boys,51.71,2,Sergio Perales,Midland Legacy,48.08,99.79,70.31,142.88,312.98,Single-ply,SBD,M,
Boys,55.79,1,Kenny Richardson,Big Spring,54.79,170.1,102.06,181.44,453.59,Single-ply,SBD,M,
Boys,55.79,2,Elijah Mier,Big Spring,55.43,138.35,88.45,158.76,385.55,Single-ply,SBD,M,
Boys,59.87,1,Ivan Zamora,Andrews,59.15,199.58,127.01,192.78,519.36,Single-ply,SBD,M,
Boys,59.87,2,Arturo Del Valle,Big Spring,57.33,154.22,106.59,161.03,421.84,Single-ply,SBD,M,
Boys,59.87,3,Daniel Renteria,Fort Stockton,59.6,151.95,74.84,176.9,403.7,Single-ply,SBD,M,
Boys,67.13,1,Brandon Salazar,Midland Greenwood,66.86,183.7,97.52,170.1,451.32,Single-ply,SBD,M,
Boys,67.13,2,Michael Daniels,Ozona,63.68,170.1,70.31,149.69,390.09,Single-ply,SBD,M,
Boys,67.13,3,Jacob Vourazeris,Midland Legacy,64.5,127.01,81.65,165.56,374.21,Single-ply,SBD,M,
Boys,67.13,4,Marcus Aguilar,Seminole,64.59,136.08,63.5,147.42,347,Single-ply,SBD,M,
Boys,67.13,5,Malcolm Cotton,Midland Legacy,61.87,102.06,90.72,102.06,294.84,Single-ply,SBD,M,
Boys,67.13,DQ,Sonny Ledesma,Big Spring,65.95,161.03,86.18,,,Single-ply,SBD,M,
Boys,74.84,1,Indiana Taylor,Andrews,73.48,219.99,151.95,249.48,621.42,Single-ply,SBD,M,
Boys,74.84,2,Matthew DeLaGarza,Ozona,74.39,192.78,113.4,185.97,492.15,Single-ply,SBD,M,
Boys,74.84,3,Leroy Johnson,Big Spring,70.22,204.12,104.33,181.44,489.88,Single-ply,SBD,M,
Boys,74.84,4,John Breeden,Midland Greenwood,73.66,190.51,95.25,201.85,487.61,Single-ply,SBD,M,
Boys,74.84,5,Jeremiah Talamantes,Seminole,73.21,185.97,102.06,183.7,471.74,Single-ply,SBD,M,
Boys,74.84,6,Ryan Pacheco,Midland Legacy,74.21,147.42,124.74,188.24,460.4,Single-ply,SBD,M,
Boys,74.84,7,Eddie Rios,Ozona,72.76,170.1,90.72,161.03,421.84,Single-ply,SBD,M,
Boys,74.84,8,Austin Vanriper,Seminole,74.39,151.95,99.79,149.69,401.43,Single-ply,SBD,M,
Boys,74.84,9,William Keesee,Ozona,67.95,142.88,63.5,161.03,367.41,Single-ply,SBD,M,
Boys,74.84,DQ,Jimmy Vazquez,Midland Greenwood,74.57,249.48,140.61,,,Single-ply,SBD,M,
Boys,82.1,1,George Wagner,Andrews,81.1,249.48,136.08,258.55,644.1,Single-ply,SBD,M,
Boys,82.1,2,Karl Karabanoff,Big Spring,80.56,213.19,115.67,219.99,548.85,Single-ply,SBD,M,
Boys,82.1,3,Wyatt Olive,Midland Greenwood,79.65,219.99,117.93,197.31,535.24,Single-ply,SBD,M,
Boys,82.1,4,Connor McCrary,Andrews,80.1,213.19,117.93,201.85,532.97,Single-ply,SBD,M,
Boys,82.1,5,Gio Tarango,Midland Greenwood,75.02,215.46,122.47,190.51,528.44,Single-ply,SBD,M,
Boys,82.1,6,Caleb New,Big Spring,77.75,213.19,124.74,190.51,528.44,Single-ply,SBD,M,
Boys,82.1,7,Christian DeLuna,Big Lake Reagan County,81.37,183.7,142.88,190.51,517.1,Single-ply,SBD,M,
Boys,82.1,8,Cristian Gutierrez,Big Lake Reagan County,80.1,185.97,97.52,158.76,442.25,Single-ply,SBD,M,
Boys,89.81,1,Juan Saucedo,Big Lake Reagan County,89.54,256.28,163.29,217.72,637.3,Single-ply,SBD,M,
Boys,89.81,2,Ernan Carrasco,Andrews,82.19,251.74,156.49,222.26,630.49,Single-ply,SBD,M,
Boys,89.81,3,Fernando Zapata,Midland Greenwood,87.63,258.55,151.95,217.72,628.23,Single-ply,SBD,M,
Boys,89.81,4,Orlando Baeza,Midland Greenwood,89.36,247.21,140.61,201.85,589.67,Single-ply,SBD,M,
Boys,89.81,5,Seth Olsen,Big Spring,83.73,204.12,115.67,244.94,564.72,Single-ply,SBD,M,
Boys,89.81,6,Brandon Castillo,Andrews,87.63,233.6,122.47,204.12,560.19,Single-ply,SBD,M,
Boys,89.81,7,Felipe Ramirez,Midland Legacy,83.82,167.83,99.79,181.44,449.06,Single-ply,SBD,M,
Boys,89.81,DQ,Luis Cervantes,Andrews,87.63,260.82,136.08,224.53,,Single-ply,SBD,M,
Boys,99.79,1,Jaxon Lawdermilk,Andrews,96.25,256.28,131.54,238.14,625.96,Single-ply,SBD,M,
Boys,99.79,2,Kyle Warren,Big Spring,96.8,233.6,117.93,222.26,573.79,Single-ply,SBD,M,
Boys,99.79,3,Elijah Burton,Big Spring,96.52,226.8,129.27,206.38,562.45,Single-ply,SBD,M,
Boys,99.79,4,Isaih Montoya,Andrews,91.44,206.38,131.54,199.58,537.51,Single-ply,SBD,M,
Boys,109.77,1,Alexander Wootton,Seminole,103.42,299.37,163.29,285.76,748.43,Single-ply,SBD,M,
Boys,109.77,2,Adrian Salcido,Andrews,106.32,272.16,174.63,226.8,673.58,Single-ply,SBD,M,
Boys,109.77,3,Cash Caswell,Andrews,108.95,233.6,151.95,229.06,614.62,Single-ply,SBD,M,
Boys,109.77,4,Juan Torres,Midland Legacy,105.23,210.92,172.37,197.31,580.6,Single-ply,SBD,M,
Boys,109.77,5,Christian Reyes,Midland Legacy,102.87,201.85,154.22,206.38,562.45,Single-ply,SBD,M,
Boys,109.77,6,Jonathan Taylor,Midland Legacy,101.51,210.92,151.95,188.24,551.11,Single-ply,SBD,M,
Boys,109.77,7,Robert Barrera,Ozona,103.06,183.7,120.2,185.97,489.88,Single-ply,SBD,M,
Boys,109.77,8,Ryan Sinclair,Seminole,105.87,165.56,83.91,158.76,408.23,Single-ply,SBD,M,
Boys,109.77,9,Jackson Campbell,Seminole,104.14,92.99,54.43,122.47,269.89,Single-ply,SBD,M,
Boys,109.77,DQ,Jake Sumrow,Seminole,106.87,167.83,,,,Single-ply,SBD,M,
Boys,109.77,DQ,Bren Dyess,Midland Legacy,108.14,176.9,147.42,,,Single-ply,SBD,M,
Boys,109.77,DQ,Manny Davila,Big Lake Reagan County,107.32,233.6,142.88,,,Single-ply,SBD,M,
Boys,124.74,1,Josiah Flores,Andrews,116.3,285.76,170.1,224.53,680.39,Single-ply,SBD,M,
Boys,124.74,2,Jonovan Matthews,Midland Legacy,110.68,249.48,183.7,240.4,673.58,Single-ply,SBD,M,
Boys,124.74,3,Hayden Becerra,Midland Legacy,113.94,272.16,183.7,201.85,657.71,Single-ply,SBD,M,
Boys,124.74,4,Lucas Barrientes,Midland Legacy,111.86,226.8,138.35,204.12,569.26,Single-ply,SBD,M,
Boys,124.74,5,Brady Casbeer,Midland Greenwood,118.57,240.4,151.95,165.56,557.92,Single-ply,SBD,M,
Boys,124.74,6,Carsen Cox,Seminole,112.85,165.56,97.52,154.22,417.3,Single-ply,SBD,M,
Boys,139.71,1,Jacob Yanez,Big Spring,133.63,294.84,167.83,235.87,698.53,Single-ply,SBD,M,
Boys,139.71+,1,Keano Perez,Ozona,148.87,306.17,156.49,254.01,716.68,Single-ply,SBD,M,
Boys,,NS,Pedro Elizondo,Ozona,,,,,,Single-ply,SBD,M,
Boys,,NS,Dayven Rosales,Seminole,,,,,,Single-ply,SBD,M,
Boys,,NS,Jarryn Puckett,Ozona,,,,,,Single-ply,SBD,M,
Boys,,NS,Thomas Mireles,Midland Greenwood,,,,,,Single-ply,SBD,M,
