Division,WeightClassKg,Place,Name,Team,BodyweightKg,Best3SquatKg,Best3BenchKg,Best3DeadliftKg,TotalKg,Equipment,Event,Sex,BirthDate
Boys,51.71,1,Jonathan Becerril,Perryton,50.48,158.76,88.45,183.7,430.91,Single-ply,SBD,M,
Boys,51.71,2,Juventino Guerrero,Hidalgo Early College,51.66,161.03,92.99,172.37,426.38,Single-ply,SBD,M,
Boys,51.71,3,Leo Ruiz,Hidalgo Early College,50.8,156.49,104.33,161.03,421.84,Single-ply,SBD,M,
Boys,51.71,4,Rodriguez Braulio,Nevada Community,50.35,149.69,83.91,161.03,394.63,Single-ply,SBD,M,
Boys,51.71,5,Dustin Bland,Orange Little Cypress-Mauriceville,50.44,113.4,117.93,158.76,390.09,Single-ply,SBD,M,
Boys,51.71,6,Ivan Sifuentes,Wills Point,51.66,147.42,92.99,142.88,383.29,Single-ply,SBD,M,
Boys,51.71,7,Herrera Isaac,Decatur,50.89,129.27,72.57,163.29,365.14,Single-ply,SBD,M,
Boys,51.71,8,Christian Morales,Lake Belton,49.12,124.74,70.31,158.76,353.8,Single-ply,SBD,M,
Boys,51.71,9,Caleb Johnson,Lumberton,50.03,136.08,74.84,136.08,347,Single-ply,SBD,M,
Boys,51.71,10,Noah Stephens,Salado,49.8,149.69,68.04,127.01,344.73,Single-ply,SBD,M,
Boys,51.71,11,Avery Roberts,Brownsboro,50.98,129.27,74.84,136.08,340.19,Single-ply,SBD,M,
Boys,51.71,12,Nathan Rendon,Levelland,51.03,111.13,74.84,142.88,328.85,Single-ply,SBD,M,
Boys,55.79,1,Rudy Morales,Shepherd,55.11,192.78,115.67,210.92,519.36,Single-ply,SBD,M,
Boys,55.79,2,Alex Vela,Corpus Christi Calallen,55.11,185.97,92.99,206.38,485.34,Single-ply,SBD,M,
Boys,55.79,3,Washington Kenaj,Kennedale,55.02,179.17,108.86,183.7,471.74,Single-ply,SBD,M,
Boys,55.79,4,Jakovi Dabbs,Paris,54.02,161.03,97.52,201.85,460.4,Single-ply,SBD,M,
Boys,55.79,5,Raul Musquiz,Crystal City,55.2,165.56,102.06,185.97,453.59,Single-ply,SBD,M,
Boys,55.79,6,Adrian Avalos,Snyder,54.11,170.1,92.99,176.9,439.98,Single-ply,SBD,M,
Boys,55.79,7,Kenny Richardson,Big Spring,54.88,161.03,102.06,176.9,439.98,Single-ply,SBD,M,
Boys,55.79,8,Alejandro Flores,Snyder,53.71,176.9,79.38,174.63,430.91,Single-ply,SBD,M,
Boys,55.79,9,Cornell Avington,Lake Worth,55.79,136.08,88.45,170.1,394.63,Single-ply,SBD,M,
Boys,55.79,10,Alejandro Delima,Salado,55.7,163.29,77.11,127.01,367.41,Single-ply,SBD,M,
Boys,55.79,11,Caden Brister,Gatesville,54.75,142.88,83.91,138.35,365.14,Single-ply,SBD,M,
Boys,55.79,DQ,Marcos Perez-Garcia,Geronimo Navarro,53.02,163.29,111.13,,,Single-ply,SBD,M,
Boys,55.79,DQ,John Contreras,Beeville Jones,54.66,,,,,Single-ply,SBD,M,
Boys,55.79,DQ,Caleb Webb,Wills Point,54.93,,,,,Single-ply,SBD,M,
Boys,55.79,NS,Oscar Salazar,Waco La Vega,,,,,,Single-ply,SBD,M,
Boys,59.87,1,Lain Baker,Shepherd,59.06,226.8,138.35,201.85,566.99,Single-ply,SBD,M,
Boys,59.87,2,Ivan Zamora,Andrews,58.79,217.72,113.4,208.65,539.77,Single-ply,SBD,M,
Boys,59.87,3,Julian Cadena,Corpus Christi Calallen,59.24,208.65,145.15,176.9,530.7,Single-ply,SBD,M,
Boys,59.87,4,Isaac Castro,Perryton,59.6,185.97,133.81,195.04,514.83,Single-ply,SBD,M,
Boys,59.87,5,Luke Elrod,Paris North Lamar,58.47,165.56,102.06,192.78,460.4,Single-ply,SBD,M,
Boys,59.87,6,Jayden Bridgewater,Alvarado,58.79,181.44,115.67,154.22,451.32,Single-ply,SBD,M,
Boys,59.87,7,Tyler Jessup,Alvarado,59.42,154.22,108.86,181.44,444.52,Single-ply,SBD,M,
Boys,59.87,8,Huerta Alexis,Gainesville,57.47,165.56,102.06,147.42,415.04,Single-ply,SBD,M,
Boys,59.87,DQ,Danny Hughston,Cuero,59.47,,,,,Single-ply,SBD,M,
Boys,59.87,DQ,Kyle Crawford,Brownsboro,58.15,190.51,102.06,,,Single-ply,SBD,M,
Boys,59.87,DQ,Parker Rowdy,Bridgeport,58.51,185.97,102.06,,,Single-ply,SBD,M,
Boys,59.87,NS,Ezra Salazar,Corpus Christi Tuloso-Midway,,,,,,Single-ply,SBD,M,
Boys,59.87,NS,Sebastian Perez,Crystal City,,,,,,Single-ply,SBD,M,
Boys,67.13,1,Jerek Sanchez,Sinton,66,254.01,208.65,263.08,725.75,Single-ply,SBD,M,
Boys,67.13,2,Josh Trevino,Corpus Christi West Oso,66.36,242.67,136.08,229.06,607.81,Single-ply,SBD,M,
Boys,67.13,3,David Hernandez,Port Isabel,64.05,231.33,136.08,226.8,594.21,Single-ply,SBD,M,
Boys,67.13,4,Israel Loma,Perryton,66.5,215.46,124.74,235.87,576.06,Single-ply,SBD,M,
Boys,67.13,5,Eric Martinez,Sweetwater,66.72,229.06,124.74,222.26,576.06,Single-ply,SBD,M,
Boys,67.13,6,Anthony Lopez,Ferris,66.36,226.8,140.61,197.31,564.72,Single-ply,SBD,M,
Boys,67.13,7,Jeremiah Metzgar,Sealy,65.54,204.12,136.08,217.72,557.92,Single-ply,SBD,M,
Boys,67.13,8,Tyler Hunt,Palestine,66.13,215.46,136.08,197.31,548.85,Single-ply,SBD,M,
Boys,67.13,9,HIll Weston,Sanger,63.05,201.85,113.4,217.72,532.97,Single-ply,SBD,M,
Boys,67.13,10,Jessiah Barr,Gonzales,64.59,204.12,120.2,204.12,528.44,Single-ply,SBD,M,
Boys,67.13,11,Padron Leonel,Quinlan Ford,65.95,208.65,120.2,174.63,503.49,Single-ply,SBD,M,
Boys,67.13,DQ,Johnathan Jones,Paris,67.13,,,,,Single-ply,SBD,M,
Boys,67.13,DQ,Alex Ansay,Alvarado,66.13,208.65,129.27,,,Single-ply,SBD,M,
Boys,74.84,1,Greyson Blanchard,Celina,72.76,294.84,183.7,254.01,732.55,Single-ply,SBD,M,
Boys,74.84,2,Christian Laja,Perryton,74.07,288.03,154.22,260.82,703.07,Single-ply,SBD,M,
Boys,74.84,3,Josiah Lugo,Somerset,73.66,265.35,176.9,208.65,650.91,Single-ply,SBD,M,
Boys,74.84,4,Indiana Taylor,Andrews,73.44,231.33,154.22,263.08,648.64,Single-ply,SBD,M,
Boys,74.84,5,Eric Hernandez,Devine,73.94,249.48,145.15,254.01,648.64,Single-ply,SBD,M,
Boys,74.84,6,Joel Weekes,Shepherd,73.03,247.21,149.69,249.48,646.37,Single-ply,SBD,M,
Boys,74.84,7,Stevens Carson,Iowa Park,73.71,249.48,156.49,226.8,632.76,Single-ply,SBD,M,
Boys,74.84,8,Tull Jacob,Farmersville,72.94,235.87,129.27,222.26,587.4,Single-ply,SBD,M,
Boys,74.84,9,Mickey Ray,Bullard,73.16,249.48,115.67,204.12,569.26,Single-ply,SBD,M,
Boys,74.84,10,Izaac Zamora,Geronimo Navarro,71.03,215.46,124.74,210.92,551.11,Single-ply,SBD,M,
Boys,74.84,DQ,John Parra,Fredericksburg,74.3,210.92,124.74,,,Single-ply,SBD,M,
Boys,74.84,DQ,Dominique Wooten,Lampasas,69.76,201.85,151.95,,,Single-ply,SBD,M,
Boys,74.84,DQ,Kadyn McDonald,Paris,74.25,210.92,111.13,,,Single-ply,SBD,M,
Boys,82.1,1,Jaxon Mabile,Ingleside,80.33,290.3,183.7,283.5,757.5,Single-ply,SBD,M,
Boys,82.1,2,Ya'Corus Porter,Henderson,79.65,272.16,158.76,254.01,684.92,Single-ply,SBD,M,
Boys,82.1,3,Sabien Perry,Dumas,80.01,283.5,154.22,235.87,673.58,Single-ply,SBD,M,
Boys,82.1,4,Derrick Willis,Ferris,81.01,265.35,142.88,249.48,657.71,Single-ply,SBD,M,
Boys,82.1,5,Ernan Carrasco,Andrews,80.01,254.01,142.88,256.28,653.17,Single-ply,SBD,M,
Boys,82.1,6,George Wagner,Andrews,81.87,244.94,151.95,249.48,646.37,Single-ply,SBD,M,
Boys,82.1,7,Cody Baker,Cuero,81.15,260.82,154.22,219.99,635.03,Single-ply,SBD,M,
Boys,82.1,8,Hector Granados,Giddings,81.06,249.48,154.22,219.99,623.69,Single-ply,SBD,M,
Boys,82.1,9,Ariel Hernandez,Pearsall,78.61,233.6,158.76,219.99,612.35,Single-ply,SBD,M,
Boys,82.1,10,Travis Menchaca,La Feria,79.33,233.6,129.27,240.4,603.28,Single-ply,SBD,M,
Boys,82.1,11,Evan Sanchez,La Feria,78.61,229.06,142.88,226.8,598.74,Single-ply,SBD,M,
Boys,82.1,12,Jose Reynaga,Port Lavaca Calhoun,79.33,226.8,149.69,215.46,591.94,Single-ply,SBD,M,
Boys,82.1,13,Kaleb Tate,Henderson,79.88,226.8,136.08,226.8,589.67,Single-ply,SBD,M,
Boys,82.1,DQ,Reyes Ruben,Stephenville,81.15,222.26,,,,Single-ply,SBD,M,
Boys,82.1,DQ,Matehuala Ricky,Celina,81.51,,,,,Single-ply,SBD,M,
Boys,89.81,1,Yovanni Juarez,Gainesville,88.18,351.53,249.48,260.82,861.83,Single-ply,SBD,M,
Boys,89.81,2,Devon Munoz,Corpus Christi West Oso,86.82,281.23,219.99,249.48,750.7,Single-ply,SBD,M,
Boys,89.81,3,Seth Morgan,Ingleside,89.22,272.16,183.7,272.16,728.02,Single-ply,SBD,M,
Boys,89.81,4,Westen Reid,Lampasas,85.55,290.3,167.83,267.62,725.75,Single-ply,SBD,M,
Boys,89.81,5,Epifanio Hinojosa,Corpus Christi Calallen,88.54,294.84,176.9,249.48,721.21,Single-ply,SBD,M,
Boys,89.81,6,Logan Gray,Borger,88.95,294.84,145.15,251.74,691.73,Single-ply,SBD,M,
Boys,89.81,7,Jaydon Lang,Waco La Vega,86.05,272.16,140.61,272.16,684.92,Single-ply,SBD,M,
Boys,89.81,8,Williams Jadonavan,Quinlan Ford,89.45,272.16,170.1,240.4,682.66,Single-ply,SBD,M,
Boys,89.81,9,Alan Rodriguez,Corpus Christi Tuloso-Midway,88.68,272.16,163.29,238.14,673.58,Single-ply,SBD,M,
Boys,89.81,10,Javaree Bacon,Cuero,87.04,281.23,138.35,244.94,664.51,Single-ply,SBD,M,
Boys,89.81,11,Johnfree Carden,Rockport-Fulton,87.32,260.82,127.01,272.16,659.98,Single-ply,SBD,M,
Boys,89.81,12,Zach Anthony,Lubbock Trinity Christian Schools,88.95,263.08,151.95,238.14,653.17,Single-ply,SBD,M,
Boys,89.81,13,Dawson Exline,China Spring,89.72,244.94,151.95,247.21,644.1,Single-ply,SBD,M,
Boys,89.81,14,Fernando Zapata,Midland Greenwood,88.72,258.55,151.95,204.12,614.62,Single-ply,SBD,M,
Boys,89.81,15,Patrick Roland,Paris,88.31,240.4,138.35,219.99,598.74,Single-ply,SBD,M,
Boys,89.81,16,Jariah Moore,Paris,88.81,249.48,133.81,215.46,598.74,Single-ply,SBD,M,
Boys,89.81,DQ,Joseph Flores,Huffman Hargrave,88.9,,,,,Single-ply,SBD,M,
Boys,99.79,1,Reyes Silva,Snyder,98.47,362.87,181.44,272.16,816.47,Single-ply,SBD,M,
Boys,99.79,2,Joey Cantu,Rockport-Fulton,97.66,328.85,185.97,272.16,786.98,Single-ply,SBD,M,
Boys,99.79,3,Jamien Henley,Waco La Vega,97.93,294.84,195.04,272.16,762.04,Single-ply,SBD,M,
Boys,99.79,4,Sales Corbyn,Iowa Park,96.34,294.84,174.63,272.16,741.62,Single-ply,SBD,M,
Boys,99.79,5,Orlando Morales,La Feria,96.66,301.64,176.9,263.08,741.62,Single-ply,SBD,M,
Boys,99.79,6,Pace William,Celina,97.84,294.84,170.1,272.16,737.09,Single-ply,SBD,M,
Boys,99.79,7,Gamino Jimmy,Decatur,95.8,278.96,181.44,272.16,732.55,Single-ply,SBD,M,
Boys,99.79,8,Aidan Wilson,Salado,96.8,290.3,165.56,274.42,730.28,Single-ply,SBD,M,
Boys,99.79,9,Isaac Garcia,Crystal City,99.47,274.42,197.31,256.28,728.02,Single-ply,SBD,M,
Boys,99.79,10,Easton Kylberg,Giddings,97.07,272.16,185.97,267.62,725.75,Single-ply,SBD,M,
Boys,99.79,11,Alonso Tarango,Perryton,97.7,292.57,197.31,226.8,716.68,Single-ply,SBD,M,
Boys,99.79,12,Ryan Magrill,Brownsboro,96.16,283.5,183.7,226.8,694,Single-ply,SBD,M,
Boys,99.79,13,Cade McKinstry,Lumberton,99.06,274.42,170.1,242.67,687.19,Single-ply,SBD,M,
Boys,99.79,14,Jovani Tamayo,Venus,96.98,249.48,181.44,242.67,673.58,Single-ply,SBD,M,
Boys,99.79,15,Caden Bradford,Bay City,94.57,274.42,167.83,226.8,669.05,Single-ply,SBD,M,
Boys,99.79,16,Samuel Bowker,Mabank,93.44,238.14,165.56,224.53,628.23,Single-ply,SBD,M,
Boys,99.79,DQ,Roden Kaiden,Quinlan Ford,98.29,272.16,167.83,,,Single-ply,SBD,M,
Boys,109.77,1,Isaiah Garay,Somerset,108.95,374.21,226.8,226.8,827.81,Single-ply,SBD,M,
Boys,109.77,2,Alfredo Segura,Carrizo Springs,108.18,326.59,183.7,297.1,807.39,Single-ply,SBD,M,
Boys,109.77,3,Steven Terrazas,Somerset,107.68,310.71,231.33,242.67,784.71,Single-ply,SBD,M,
Boys,109.77,4,Alexander Wootton,Seminole,105.46,317.51,172.37,285.76,775.64,Single-ply,SBD,M,
Boys,109.77,5,Antonio Marroquin,La Feria,108.82,303.91,199.58,260.82,764.3,Single-ply,SBD,M,
Boys,109.77,6,Clark Zach,Iowa Park,101.6,301.64,204.12,254.01,759.77,Single-ply,SBD,M,
Boys,109.77,7,Hunter Norwood,Orangefield,108.86,306.17,185.97,256.28,748.43,Single-ply,SBD,M,
Boys,109.77,8,Hunter Ashworth,Orangefield,106.05,290.3,158.76,276.69,725.75,Single-ply,SBD,M,
Boys,109.77,9,Martin Rios,Crystal City,107.5,294.84,195.04,235.87,725.75,Single-ply,SBD,M,
Boys,109.77,10,Adrian Salcido,Andrews,105.69,290.3,172.37,249.48,712.14,Single-ply,SBD,M,
Boys,109.77,11,Gavyn Keyser,Salado,107.73,272.16,165.56,272.16,709.87,Single-ply,SBD,M,
Boys,109.77,12,Xavier Aleman,Beeville Jones,106.96,288.03,183.7,226.8,698.53,Single-ply,SBD,M,
Boys,109.77,13,Austin Taylor,Bullard,106.55,258.55,183.7,226.8,669.05,Single-ply,SBD,M,
Boys,109.77,14,Adan Rodriguez,Comal Davenport,108.91,251.74,172.37,235.87,659.98,Single-ply,SBD,M,
Boys,109.77,15,Younger Jackson,Nevada Community,107.14,249.48,163.29,226.8,639.57,Single-ply,SBD,M,
Boys,109.77,NS,Evan Eden,Corpus Christi Calallen,,,,,,Single-ply,SBD,M,
Boys,109.77,DQ,Eujayvion McAlister,Henderson,108.05,310.71,183.7,,,Single-ply,SBD,M,
Boys,124.74,1,Ryan Smiley,Gatesville,122.47,369.68,206.38,276.69,852.75,Single-ply,SBD,M,
Boys,124.74,2,Matthew Lopez,Rio Hondo,122.15,331.12,199.58,274.42,805.13,Single-ply,SBD,M,
Boys,124.74,3,Aiden Hinojosa,Corpus Christi Calallen,115.21,340.19,183.7,278.96,802.86,Single-ply,SBD,M,
Boys,124.74,4,Hector Pando,Dumas,120.02,306.17,192.78,267.62,766.57,Single-ply,SBD,M,
Boys,124.74,5,Gabriel Gutierrez,Pearsall,117.12,310.71,174.63,269.89,755.23,Single-ply,SBD,M,
Boys,124.74,6,Juan Ortiz,San Angelo Lake View,124.19,303.91,183.7,267.62,755.23,Single-ply,SBD,M,
Boys,124.74,7,Raul Carrasco,Mabank,123.79,294.84,195.04,258.55,748.43,Single-ply,SBD,M,
Boys,124.74,8,Coby Coulter,Orangefield,122.15,306.17,188.24,249.48,743.89,Single-ply,SBD,M,
Boys,124.74,9,Arturo Gallegos III,Ingleside,116.89,317.51,154.22,263.08,734.82,Single-ply,SBD,M,
Boys,124.74,10,Frankie Castillo,Somerset,119.88,308.44,197.31,226.8,732.55,Single-ply,SBD,M,
Boys,124.74,11,Gage Spencer,Port Lavaca Calhoun,115.17,299.37,163.29,258.55,721.21,Single-ply,SBD,M,
Boys,124.74,12,Kyle Weghorst,Cuero,117.66,317.51,170.1,231.33,718.94,Single-ply,SBD,M,
Boys,124.74,13,Robert Kroen,Corpus Christi Tuloso-Midway,119.75,290.3,192.78,233.6,716.68,Single-ply,SBD,M,
Boys,124.74,14,Jaden Taylor,Taylor,119.02,265.35,199.58,249.48,714.41,Single-ply,SBD,M,
Boys,124.74,15,Josiah Flores,Andrews,112.58,276.69,167.83,226.8,671.32,Single-ply,SBD,M,
Boys,124.74,16,Hopper Stevie,Nevada Community,113.04,256.28,156.49,256.28,669.05,Single-ply,SBD,M,
Boys,124.74,DQ,Eric Lopez,Center,118.89,283.5,,,,Single-ply,SBD,M,
Boys,124.74,DQ,Tucker Tyler,Stephenville,112.26,,,,,Single-ply,SBD,M,
Boys,139.71,1,Landon Henke,Needville,131.86,381.02,217.72,283.5,882.24,Single-ply,SBD,M,
Boys,139.71,2,Michael Reemts,Celina,131.22,326.59,197.31,297.1,821,Single-ply,SBD,M,
Boys,139.71,3,Hayden Philpot,Decatur,133.13,331.12,226.8,263.08,821,Single-ply,SBD,M,
Boys,139.71,4,Scott Atkinson,Rio Hondo,134.08,331.12,179.17,272.16,782.45,Single-ply,SBD,M,
Boys,139.71,5,Daniel Alvidrez,Perryton,127.41,301.64,181.44,297.1,780.18,Single-ply,SBD,M,
Boys,139.71,6,Abraham Vasquez,Somerset,131,328.85,197.31,254.01,780.18,Single-ply,SBD,M,
Boys,139.71,7,Devin Fields,Henderson,128.55,294.84,192.78,281.23,768.84,Single-ply,SBD,M,
Boys,139.71,8,Hunter Mastin,Lubbock Trinity Christian Schools,131.59,306.17,204.12,249.48,759.77,Single-ply,SBD,M,
Boys,139.71,9,Diego Valdez,Pleasanton,138.3,290.3,206.38,242.67,739.36,Single-ply,SBD,M,
Boys,139.71,10,Jaylen Johnson,Waco La Vega,132.95,283.5,188.24,226.8,698.53,Single-ply,SBD,M,
Boys,139.71,11,Matthew Quiroz,Ferris,125.51,319.78,158.76,204.12,682.66,Single-ply,SBD,M,
Boys,139.71,12,Dailynn Hernandez,Bay City,131.63,294.84,163.29,222.26,680.39,Single-ply,SBD,M,
Boys,139.71,DQ,Jamaryian Black,Palestine,135.08,274.42,,,,Single-ply,SBD,M,
Boys,139.71,DQ,Nate Martinez,Sinton,134.67,292.57,,,,Single-ply,SBD,M,
Boys,139.71+,1,Reagan Gibson,West Columbia,145.1,347,201.85,272.16,821,Single-ply,SBD,M,
Boys,139.71+,2,Nick Gomez,Raymondville,150,342.46,199.58,242.67,784.71,Single-ply,SBD,M,
Boys,139.71+,3,Mark Pena,Robstown,152,322.05,210.92,242.67,775.64,Single-ply,SBD,M,
Boys,139.71+,4,Ward Brandon,Melissa,143.06,367.41,154.22,235.87,757.5,Single-ply,SBD,M,
Boys,139.71+,5,Lucas Martinez,Dumas,141.38,301.64,204.12,244.94,750.7,Single-ply,SBD,M,
Boys,139.71+,6,Joseph Fuentes,Ferris,141.07,294.84,190.51,260.82,746.16,Single-ply,SBD,M,
Boys,139.71+,7,Jason Murphy,Texarkana Liberty-Eylau,164.56,292.57,183.7,267.62,743.89,Single-ply,SBD,M,
Boys,139.71+,8,Satchel Swain,Paris,145.74,308.44,174.63,240.4,723.48,Single-ply,SBD,M,
Boys,139.71+,9,Adam Walden,Lake Belton,169.51,278.96,165.56,247.21,691.73,Single-ply,SBD,M,
Boys,139.71+,10,Brynten White,Livingston,140.84,272.16,165.56,244.94,682.66,Single-ply,SBD,M,
Boys,139.71+,11,Hunter Cobb,Pecos,160.48,281.23,176.9,204.12,662.24,Single-ply,SBD,M,
Boys,139.71+,NS,Davis Logan,Stephenville,,,,,,Single-ply,SBD,M,
