Division,WeightClassKg,Place,Name,Team,BodyweightKg,Best3SquatKg,Best3BenchKg,Best3DeadliftKg,TotalKg,Equipment,Event,Sex,BirthDate
Boys,51.71,1,Austin Barnum,Elgin,46.45,95.25,49.9,102.06,247.21,Single-ply,SBD,M,
Boys,51.71,2,Noah Cooper,Elgin,46.36,61.23,38.56,88.45,188.24,Single-ply,SBD,M,
Boys,51.71,3,Wyatt Smith,Rockdale,51.26,63.5,43.09,81.65,188.24,Single-ply,SBD,M,
Boys,51.71,DQ,Elijah Romero,Smithville,48.26,,,,,Single-ply,SBD,M,
Boys,55.79,1,Armando Reta,Kyle Lehman,55.79,165.56,74.84,156.49,396.89,Single-ply,SBD,M,
Boys,55.79,2,Seydou Kaba,Jarrell,55.79,124.74,72.57,145.15,342.46,Single-ply,SBD,M,
Boys,55.79,3,Gio Aguilar,Taylor,55.52,102.06,52.16,124.74,278.96,Single-ply,SBD,M,
Boys,55.79,4,Tucker White,Jarrell,53.43,90.72,52.16,122.47,265.35,Single-ply,SBD,M,
Boys,59.87,1,Darren Carter,Rockdale,59.15,117.93,81.65,138.35,337.93,Single-ply,SBD,M,
Boys,59.87,2,Peyton Zeplin,Thrall,58.33,102.06,61.23,115.67,278.96,Single-ply,SBD,M,
Boys,59.87,3,Ayden Greene,Jarrell,56.52,92.99,56.7,104.33,254.01,Single-ply,SBD,M,
Boys,59.87,DQ,Christian Osorio,Smithville,59.6,,63.5,142.88,,Single-ply,SBD,M,
Boys,67.13,1,Ian Collins,Manor,64.23,183.7,92.99,183.7,460.4,Single-ply,SBD,M,
Boys,67.13,2,Kevin Liu,Rockdale,67.13,151.95,90.72,181.44,424.11,Single-ply,SBD,M,
Boys,67.13,3,Ikaika Engleman,Kyle Lehman,66.32,151.95,79.38,190.51,421.84,Single-ply,SBD,M,
Boys,67.13,4,Adan Velasquez,Del Valle,65.5,136.08,95.25,170.1,401.43,Single-ply,SBD,M,
Boys,67.13,5,Jeremiah Harvey,Elgin,64.23,145.15,92.99,156.49,394.63,Single-ply,SBD,M,
Boys,67.13,6,Amos Sizer,Lago Vista,60.51,147.42,83.91,154.22,385.55,Single-ply,SBD,M,
Boys,67.13,7,Kaius Northcutt,Lago Vista,65.59,154.22,70.31,158.76,383.29,Single-ply,SBD,M,
Boys,67.13,8,Omar Palacios,Elgin,64.77,129.27,90.72,158.76,378.75,Single-ply,SBD,M,
Boys,67.13,9,Anthony Cote,Jarrell,66.77,142.88,83.91,147.42,374.21,Single-ply,SBD,M,
Boys,67.13,10,Luciano Arias,Taylor,66.41,136.08,74.84,142.88,353.8,Single-ply,SBD,M,
Boys,67.13,11,Jayden Harbison,Kyle Lehman,63.14,113.4,65.77,151.95,331.12,Single-ply,SBD,M,
Boys,67.13,12,Max Finn,Thrall,63.23,111.13,74.84,138.35,324.32,Single-ply,SBD,M,
Boys,67.13,13,Aiden Nickle,Thrall,66.41,106.59,79.38,113.4,299.37,Single-ply,SBD,M,
Boys,67.13,14,Payton Pipkin,Thrall,60.87,102.06,68.04,127.01,297.1,Single-ply,SBD,M,
Boys,67.13,15,Michael Machala,Thrall,61.33,102.06,56.7,122.47,281.23,Single-ply,SBD,M,
Boys,67.13,16,Luke Lawless,Lago Vista,65.5,102.06,61.23,113.4,276.69,Single-ply,SBD,M,
Boys,67.13,17,Joseph Gonzales,Del Valle,62.05,102.06,56.7,102.06,260.82,Single-ply,SBD,M,
Boys,67.13,DQ,Paden Maass,Elgin,66.22,120.2,,,,Single-ply,SBD,M,
Boys,67.13,DQ,Josh Gil,Elgin,65.77,131.54,,,,Single-ply,SBD,M,
Boys,67.13,DQ,Dylan Pursley,Jarrell,67.13,,,145.15,,Single-ply,SBD,M,
Boys,74.84,1,Bryce Flowers,Rockdale,74.84,204.12,124.74,210.92,539.77,Single-ply,SBD,M,
Boys,74.84,2,Jackson Meller,Taylor,74.03,181.44,111.13,183.7,476.27,Single-ply,SBD,M,
Boys,74.84,3,Chance Postell,Elgin,70.03,136.08,106.59,183.7,426.38,Single-ply,SBD,M,
Boys,74.84,4,Austin Gann,Elgin,74.21,142.88,102.06,170.1,415.04,Single-ply,SBD,M,
Boys,74.84,5,Colby Solis,Taylor,71.3,158.76,88.45,165.56,412.77,Single-ply,SBD,M,
Boys,74.84,6,Aidan Rambourg,Austin Navarro Early College,71.21,154.22,90.72,163.29,408.23,Single-ply,SBD,M,
Boys,74.84,7,Andrias Fisher,Taylor,67.86,154.22,86.18,163.29,403.7,Single-ply,SBD,M,
Boys,74.84,8,Brandt Whitlow,Taylor,74.03,145.15,88.45,170.1,403.7,Single-ply,SBD,M,
Boys,74.84,9,Brandon Galvan,Austin Navarro Early College,72.3,142.88,88.45,161.03,392.36,Single-ply,SBD,M,
Boys,74.84,10,Malcolm Smith,Del Valle,74.75,142.88,97.52,142.88,383.29,Single-ply,SBD,M,
Boys,74.84,11,Dylan Grisworld,Hutto,73.94,142.88,88.45,147.42,378.75,Single-ply,SBD,M,
Boys,74.84,12,Jackson Cloudus,Elgin,71.49,124.74,83.91,142.88,351.53,Single-ply,SBD,M,
Boys,74.84,13,Ulisses Torres,Elgin,74.57,124.74,83.91,142.88,351.53,Single-ply,SBD,M,
Boys,74.84,14,Orye Melendez,Austin Navarro Early College,72.85,142.88,70.31,136.08,349.27,Single-ply,SBD,M,
Boys,74.84,15,Tristan Kerlin,Thorndale,67.95,124.74,74.84,131.54,331.12,Single-ply,SBD,M,
Boys,74.84,16,Victor Rios,Del Valle,70.58,115.67,68.04,136.08,319.78,Single-ply,SBD,M,
Boys,74.84,DQ,Luke Merz,Thorndale,74.39,,108.86,170.1,,Single-ply,SBD,M,
Boys,74.84,DQ,Aj Hernandez,Thorndale,73.66,172.37,,,,Single-ply,SBD,M,
Boys,74.84,DQ,Samuel Isaac,Smithville,71.12,,83.91,131.54,,Single-ply,SBD,M,
Boys,74.84,DQ,Matthew Rangel,Taylor,67.68,136.08,,,,Single-ply,SBD,M,
Boys,82.1,1,Allan Romero,Del Valle,82.1,210.92,117.93,229.06,557.92,Single-ply,SBD,M,
Boys,82.1,2,Jiovanni Thierry,Jarrell,81.56,183.7,115.67,244.94,544.31,Single-ply,SBD,M,
Boys,82.1,3,Daniel Farr,Jarrell,77.47,183.7,124.74,204.12,512.56,Single-ply,SBD,M,
Boys,82.1,4,Trace Riggs,Thrall,75.39,188.24,115.67,197.31,501.22,Single-ply,SBD,M,
Boys,82.1,5,Eduardo Perez,Austin Navarro Early College,79.29,174.63,124.74,192.78,492.15,Single-ply,SBD,M,
Boys,82.1,6,Dominic Garcia,Lago Vista,78.56,176.9,86.18,217.72,480.81,Single-ply,SBD,M,
Boys,82.1,7,Miguel Grado,Jarrell,79.56,176.9,104.33,170.1,451.32,Single-ply,SBD,M,
Boys,82.1,8,Jesus Valle,Jarrell,79.2,147.42,106.59,172.37,426.38,Single-ply,SBD,M,
Boys,82.1,9,Aden Reta,Kyle Lehman,78.74,174.63,104.33,129.27,408.23,Single-ply,SBD,M,
Boys,82.1,10,Hayden Heselmeyer,Thrall,81.56,147.42,102.06,158.76,408.23,Single-ply,SBD,M,
Boys,82.1,11,Noah Hammock,Thrall,78.65,129.27,102.06,156.49,387.82,Single-ply,SBD,M,
Boys,82.1,12,Ivan Caballero,Del Valle,75.3,138.35,81.65,163.29,383.29,Single-ply,SBD,M,
Boys,82.1,13,Luke Pearson,Thrall,79.92,142.88,83.91,138.35,365.14,Single-ply,SBD,M,
Boys,82.1,DQ,Kenelle Hodges,Del Valle,81.56,102.06,,136.08,,Single-ply,SBD,M,
Boys,89.81,1,Hayden Kylberg,Thorndale,89.63,249.48,181.44,249.48,680.39,Single-ply,SBD,M,
Boys,89.81,2,Brayden Chelmo,Manor,87.36,158.76,102.06,172.37,433.18,Single-ply,SBD,M,
Boys,89.81,3,Aiden Stojanik,Lago Vista,88.45,151.95,97.52,183.7,433.18,Single-ply,SBD,M,
Boys,89.81,4,Juan Hernandez,Austin Navarro Early College,84.73,142.88,77.11,199.58,419.57,Single-ply,SBD,M,
Boys,89.81,5,Christian Longoria,Del Valle,87.18,111.13,92.99,149.69,353.8,Single-ply,SBD,M,
Boys,89.81,DQ,Diego Macedo,Kyle Lehman,86.09,294.84,,,,Single-ply,SBD,M,
Boys,99.79,1,Caleb Esparza,Kyle Lehman,90.99,337.93,176.9,256.28,771.11,Single-ply,SBD,M,
Boys,99.79,2,Abdias Castillo,Elgin,97.98,272.16,176.9,263.08,712.14,Single-ply,SBD,M,
Boys,99.79,3,Daniel Gardiner,Rockdale,99.61,226.8,122.47,226.8,576.06,Single-ply,SBD,M,
Boys,99.79,4,Taj Johnson,Del Valle,99.61,233.6,120.2,215.46,569.26,Single-ply,SBD,M,
Boys,99.79,5,Caden Stockdale,Smithville,94.8,192.78,127.01,224.53,544.31,Single-ply,SBD,M,
Boys,99.79,6,Kaden Patrick,Hutto,96.8,165.56,97.52,174.63,437.72,Single-ply,SBD,M,
Boys,99.79,7,Anthony Gonzales,Hutto,99.34,147.42,77.11,165.56,390.09,Single-ply,SBD,M,
Boys,99.79,8,Jose Delacruz,Austin Navarro Early College,93.08,127.01,77.11,156.49,360.61,Single-ply,SBD,M,
Boys,99.79,9,Rafael Castelan,Austin Navarro Early College,98.43,124.74,81.65,145.15,351.53,Single-ply,SBD,M,
Boys,99.79,10,Hunter Dearmon,Hutto,92.9,124.74,74.84,142.88,342.46,Single-ply,SBD,M,
Boys,99.79,11,Esau Ramirez,Del Valle,94.62,102.06,79.38,136.08,317.51,Single-ply,SBD,M,
Boys,99.79,12,Richard Valdez,Smithville,97.07,111.13,65.77,124.74,301.64,Single-ply,SBD,M,
Boys,99.79,DQ,Nick Ramirez,Thorndale,94.08,,,,,Single-ply,SBD,M,
Boys,109.77,1,Gavin Aguilar,Rockdale,109.41,249.48,156.49,238.14,644.1,Single-ply,SBD,M,
Boys,109.77,2,Esau Ortiz,Taylor,101.06,247.21,174.63,219.99,641.83,Single-ply,SBD,M,
Boys,109.77,3,Nicholas Luna,Kyle Lehman,104.6,244.94,127.01,226.8,598.74,Single-ply,SBD,M,
Boys,109.77,4,David Garcia,Lago Vista,104.78,195.04,122.47,235.87,553.38,Single-ply,SBD,M,
Boys,109.77,5,Tyler Bonkowski,Thrall,104.96,183.7,120.2,183.7,487.61,Single-ply,SBD,M,
Boys,109.77,6,Devin Scura,Manor,108.77,174.63,108.86,195.04,478.54,Single-ply,SBD,M,
Boys,109.77,7,JR Torres,Hutto,103.33,170.1,145.15,149.69,464.93,Single-ply,SBD,M,
Boys,109.77,8,Eric Camacho,Taylor,105.87,165.56,86.18,181.44,433.18,Single-ply,SBD,M,
Boys,109.77,9,David Ramirez,Lago Vista,101.7,142.88,104.33,183.7,430.91,Single-ply,SBD,M,
Boys,109.77,10,Medel Guiterez,Hutto,108.95,156.49,92.99,167.83,417.3,Single-ply,SBD,M,
Boys,109.77,11,Omar Capilla,Austin Navarro Early College,102.69,145.15,70.31,158.76,374.21,Single-ply,SBD,M,
Boys,109.77,12,Eli Flores-Salisbury,Hutto,103.96,113.4,79.38,131.54,324.32,Single-ply,SBD,M,
Boys,109.77,13,Michael Cernuch,Smithville,109.13,70.31,61.23,113.4,244.94,Single-ply,SBD,M,
Boys,109.77,DQ,Chris Borja,Smithville,101.24,142.88,,154.22,,Single-ply,SBD,M,
Boys,109.77,DQ,Alex Inocencio,Thorndale,106.14,,111.13,,,Single-ply,SBD,M,
Boys,109.77,DQ,Kaleb Yount,Thorndale,107.95,,124.74,206.38,,Single-ply,SBD,M,
Boys,109.77,DQ,Xavier Vargas,Jarrell,108.41,,,145.15,,Single-ply,SBD,M,
Boys,109.77,DQ,Aaron Molina,Jarrell,109.23,,,163.29,,Single-ply,SBD,M,
Boys,109.77,DQ,Jonah Crowell,Elgin,109.77,,,,,Single-ply,SBD,M,
Boys,124.74,1,Jaden Taylor,Taylor,116.39,240.4,183.7,247.21,671.32,Single-ply,SBD,M,
Boys,124.74,2,Ernie Alderete,Taylor,121.11,206.38,120.2,183.7,510.29,Single-ply,SBD,M,
Boys,124.74,3,Cole Hughes,Manor,114.94,183.7,127.01,188.24,498.95,Single-ply,SBD,M,
Boys,124.74,4,Jacobi Simmons,Austin Navarro Early College,114.4,165.56,102.06,197.31,464.93,Single-ply,SBD,M,
Boys,124.74,5,Roy Garcia,Lago Vista,110.59,163.29,117.93,181.44,462.66,Single-ply,SBD,M,
Boys,124.74,6,Elijah Perez,Manor,116.57,147.42,111.13,181.44,439.98,Single-ply,SBD,M,
Boys,124.74,7,Jaydon Simmons,Hutto,118.57,156.49,115.67,156.49,428.64,Single-ply,SBD,M,
Boys,124.74,8,Christian Martinez,Del Valle,116.66,129.27,81.65,136.08,347,Single-ply,SBD,M,
Boys,124.74,9,Trevor Vrana,Thrall,122.29,52.16,61.23,90.72,204.12,Single-ply,SBD,M,
Boys,124.74,DQ,Wesley Donner,Manor,116.57,,97.52,165.56,,Single-ply,SBD,M,
Boys,124.74,DQ,Cody Ceder,Jarrell,123.01,,92.99,170.1,,Single-ply,SBD,M,
Boys,124.74,DQ,Daalon Nattocks,Manor,116.94,151.95,,145.15,,Single-ply,SBD,M,
Boys,139.71,1,Davin Zurovetz,Lago Vista,130.91,215.46,136.08,222.26,573.79,Single-ply,SBD,M,
Boys,139.71,DQ,Miles Grear,Rockdale,137.26,219.99,108.86,145.15,,Single-ply,SBD,M,
Boys,139.71+,1,Ryleigh O'Campo,Thrall,142.7,288.03,147.42,226.8,662.24,Single-ply,SBD,M,
Boys,139.71+,2,Steven Flores,Del Valle,167.1,145.15,102.06,158.76,405.97,Single-ply,SBD,M,
Boys,139.71+,DQ,Davarion Godley,Manor,176.36,183.7,,215.46,,Single-ply,SBD,M,
