Division,WeightClassKg,Place,Name,Team,BodyweightKg,Best3SquatKg,Best3BenchKg,Best3DeadliftKg,TotalKg,Equipment,Event,Sex,BirthDate
Boys,51.71,1,Noah Estrada,Agua Dulce,51.71,142.88,79.38,158.76,381.02,Single-ply,SBD,M,
Boys,55.79,1,Juan Ramirez,Agua Dulce,54.7,108.86,45.36,136.08,290.3,Single-ply,SBD,M,
Boys,59.87,1,James Cuevas,Corpus Christi London,58.06,124.74,81.65,183.7,390.09,Single-ply,SBD,M,
Boys,59.87,2,Austin Wesselski,Corpus Christi London,57.33,120.2,61.23,136.08,317.51,Single-ply,SBD,M,
Boys,67.13,1,Leo Rivas,Corpus Christi London,67.13,158.76,104.33,188.24,451.32,Single-ply,SBD,M,
Boys,67.13,DQ,Carson Gill,Corpus Christi London,66.77,,79.38,151.95,,Single-ply,SBD,M,
Boys,74.84,1,GiannCarlo Mirabel,Corpus Christi London,67.4,170.1,92.99,185.97,449.06,Single-ply,SBD,M,
Boys,74.84,2,John Garcia,Corpus Christi London,74.48,129.27,108.86,151.95,390.09,Single-ply,SBD,M,
Boys,74.84,DQ,Cooper Krane,Corpus Christi London,72.57,124.74,92.99,,,Single-ply,SBD,M,
Boys,82.1,1,Donald Mann,Agua Dulce,78.93,197.31,129.27,183.7,510.29,Single-ply,SBD,M,
Boys,82.1,2,Kameron Kuypers,Corpus Christi London,79.29,183.7,104.33,192.78,480.81,Single-ply,SBD,M,
Boys,82.1,3,Carlos Vinton,Agua Dulce,81.47,165.56,108.86,197.31,471.74,Single-ply,SBD,M,
Boys,82.1,4,Cole Thomas,Corpus Christi London,79.65,147.42,97.52,142.88,387.82,Single-ply,SBD,M,
Boys,82.1,DQ,Rey DeLeon,Corpus Christi London,77.66,,61.23,113.4,,Single-ply,SBD,M,
Boys,89.81,1,Nemo Jacobo,Agua Dulce,83.51,204.12,111.13,206.38,521.63,Single-ply,SBD,M,
Boys,89.81,2,Andrew Rendon,Corpus Christi London,83.28,138.35,104.33,192.78,435.45,Single-ply,SBD,M,
Boys,89.81,3,Jacob O'Brien,Corpus Christi London,89.09,131.54,79.38,151.95,362.87,Single-ply,SBD,M,
Boys,109.77,1,Ivan Rangel,Agua Dulce,109.13,219.99,124.74,231.33,576.06,Single-ply,SBD,M,
Boys,124.74,1,Victor Espinoza,Agua Dulce,121.47,224.53,142.88,231.33,598.74,Single-ply,SBD,M,
Boys,124.74,2,Alejandro Delgado,Agua Dulce,116.75,158.76,90.72,183.7,433.18,Single-ply,SBD,M,
Boys,139.71,1,Jacob Ramos,Agua Dulce,128.91,183.7,102.06,183.7,469.47,Single-ply,SBD,M,
